<?xml version="1.0" encoding="utf-8"?>
<!-- Generator: Adobe Illustrator 19.0.0, SVG Export Plug-In . SVG Version: 6.00 Build 0)  -->
<svg version="1.1" id="Layer_1" xmlns="http://www.w3.org/2000/svg" xmlns:xlink="http://www.w3.org/1999/xlink" x="0px" y="0px"
	 viewBox="5 324 470.3 133" style="enable-background:new 5 324 470.3 133;" xml:space="preserve">
<style type="text/css">
	.st0{clip-path:url(#SVGID_2_);fill:#D2D8DC;}
	.st1{clip-path:url(#SVGID_2_);fill:#F48120;}
	.st2{clip-path:url(#SVGID_2_);fill:#231F20;}
	.st3{clip-path:url(#SVGID_2_);fill:#00A551;}
	.st4{clip-path:url(#SVGID_2_);fill:#FFFDF8;}
	.st5{filter:url(#Adobe_OpacityMaskFilter);}
	.st6{clip-path:url(#SVGID_2_);}
	.st7{clip-path:url(#SVGID_5_);}
	.st8{enable-background:new    ;}
	.st9{clip-path:url(#SVGID_5_);fill:#FFFFFF;}
	.st10{clip-path:url(#SVGID_5_);fill:#231F20;}
	.st11{clip-path:url(#SVGID_2_);mask:url(#SVGID_3_);}
	.st12{clip-path:url(#SVGID_7_);fill-rule:evenodd;clip-rule:evenodd;fill:#EB1946;}
	.st13{clip-path:url(#SVGID_7_);fill-rule:evenodd;clip-rule:evenodd;fill:#366C34;}
	.st14{clip-path:url(#SVGID_7_);fill-rule:evenodd;clip-rule:evenodd;fill:#BE2227;}
	.st15{clip-path:url(#SVGID_9_);fill:url(#SVGID_10_);}
	.st16{clip-path:url(#SVGID_12_);fill:#231F20;}
	.st17{clip-path:url(#SVGID_14_);fill:url(#SVGID_15_);}
	.st18{fill:#231F20;}
	.st19{filter:url(#Adobe_OpacityMaskFilter_1_);}
	.st20{clip-path:url(#SVGID_18_);fill:url(#SVGID_19_);}
	.st21{mask:url(#SVGID_16_);}
	.st22{clip-path:url(#SVGID_21_);fill:#FFFFFF;}
	.st23{filter:url(#Adobe_OpacityMaskFilter_2_);}
	.st24{clip-path:url(#SVGID_24_);}
	.st25{clip-path:url(#SVGID_26_);fill:url(#SVGID_27_);}
	.st26{mask:url(#SVGID_22_);}
	.st27{clip-path:url(#SVGID_29_);fill:#FFFFFF;}
</style>
<g>
	<defs>
		<rect id="SVGID_1_" x="15.1" y="326.9" width="450" height="127.3"/>
	</defs>
	<clipPath id="SVGID_2_">
		<use xlink:href="#SVGID_1_"  style="overflow:visible;"/>
	</clipPath>
	<path class="st0" d="M167.4,393.5l4.7-22.8l4.8-5.3H189l-13,39.3c-1,1.4-1.9,2.5-2.9,3.4c-1,0.9-2.1,1.5-3.3,2h-4.5
		c-1.1-0.5-2.1-1.2-3.2-2.1c-1-0.9-1.9-2-2.6-3.3l-18.3-34l4.7-5.4h12.1L167.4,393.5z"/>
	<path class="st0" d="M205.1,393.3v5.9h31.7c-2.3,3.5-4.4,6.2-6.2,8.1c-1.8,1.9-2.7,2.9-2.8,2.9h-27.6c-0.7,0-1.4-0.2-2.2-0.7
		c-0.8-0.5-1.5-1-2.1-1.7c-0.6-0.7-1.2-1.4-1.6-2.1c-0.4-0.8-0.7-1.5-0.7-2.1v-31.4c0-0.6,0.2-1.3,0.7-2.1c0.5-0.8,1-1.5,1.7-2.2
		c0.7-0.7,1.4-1.2,2.1-1.7c0.8-0.4,1.5-0.7,2.1-0.7h28.5c0.8,0,1.6,0.2,2.4,0.6c0.8,0.4,1.5,0.9,2.1,1.6c0.6,0.6,1.1,1.3,1.5,2.1
		c0.4,0.8,0.6,1.6,0.6,2.3v14.3c0,0.7-0.2,1.5-0.6,2.3c-0.4,0.8-0.9,1.6-1.4,2.3c-0.6,0.7-1.2,1.3-1.9,1.7c-0.7,0.4-1.3,0.7-1.9,0.7
		H205.1z M224.2,378.6c0-0.4,0-0.8-0.1-1.4c-0.1-0.5-0.4-0.8-0.9-0.8h-18.1v14.7l8.5-8.7h9.5c0.4,0,0.7-0.3,0.9-0.8
		c0.1-0.5,0.2-1,0.2-1.4V378.6z"/>
	<path class="st0" d="M252.9,398.4c-0.2,0.5-0.7,1.4-1.6,2.6c-0.9,1.2-1.9,2.5-3.1,3.8c-1.2,1.3-2.4,2.6-3.6,3.8
		c-1.2,1.2-2.3,1.9-3.1,2.3v-49c1.7-2.2,3.5-4.6,5.4-7.1c1.9-2.5,3.9-4.7,6-6.5V398.4z"/>
	<path class="st0" d="M266.3,410.1c-1.1,0-2.1-0.3-2.9-0.8c-0.9-0.5-1.7-1.2-2.3-1.9c-0.7-0.8-1.2-1.7-1.6-2.7c-0.4-1-0.6-2-0.6-3
		V374c0-1,0.2-2,0.6-3c0.4-1,0.9-1.9,1.6-2.8c0.7-0.8,1.4-1.5,2.3-2c0.9-0.5,1.9-0.8,2.9-0.8h33.1c-0.3,0.9-0.9,2-1.9,3.3
		c-0.9,1.2-1.9,2.4-2.9,3.6c-1,1.1-1.9,2.1-2.7,2.9c-0.8,0.8-1.2,1.2-1.3,1.2h-20.3v22.8h29.1c-0.3,0.9-0.9,2-1.9,3.3
		c-0.9,1.2-1.9,2.4-2.9,3.6c-1,1.1-1.9,2.1-2.7,2.9c-0.8,0.8-1.2,1.2-1.3,1.2H266.3z"/>
	<path class="st0" d="M315.5,365.5h25.9c0.6,0,1.3,0.3,2,0.9c0.7,0.6,1.3,1.3,1.9,2.1c0.6,0.8,1,1.7,1.4,2.6
		c0.3,0.9,0.5,1.6,0.5,2.1v37h-11.4v-33.5h-20.3v21.9c-0.2,0.5-0.7,1.4-1.6,2.6c-0.9,1.2-1.9,2.5-3.1,3.8c-1.2,1.3-2.4,2.6-3.6,3.8
		c-1.2,1.2-2.3,1.9-3.1,2.3v-49.1c1.7-2.2,3.5-4.6,5.4-7.1c1.9-2.5,3.9-4.7,6-6.5V365.5z"/>
	<path class="st0" d="M383.6,382.3v-5.9h-31.7c2.3-3.5,4.4-6.2,6.2-8.1c1.8-1.9,2.7-2.8,2.8-2.8h27.6c0.6,0,1.3,0.2,2.1,0.7
		c0.8,0.5,1.5,1,2.1,1.7c0.6,0.7,1.2,1.4,1.6,2.1c0.4,0.8,0.7,1.5,0.7,2.1v31.4c0,0.7-0.2,1.4-0.7,2.2c-0.5,0.8-1,1.5-1.7,2.1
		c-0.7,0.7-1.4,1.2-2.1,1.7c-0.8,0.4-1.5,0.7-2.1,0.7h-28.5c-0.8,0-1.6-0.2-2.4-0.6c-0.8-0.4-1.5-0.9-2.1-1.6
		c-0.6-0.6-1.1-1.3-1.5-2.1c-0.4-0.8-0.6-1.6-0.6-2.3v-14.3c0-0.7,0.2-1.5,0.6-2.3c0.4-0.8,0.9-1.6,1.4-2.3c0.6-0.7,1.2-1.3,1.9-1.7
		c0.7-0.4,1.3-0.7,1.9-0.7H383.6z M364.5,397c0,0.4,0,0.8,0.1,1.4c0.1,0.5,0.4,0.8,0.9,0.8h18.1v-14.7l-8.6,8.7h-9.5
		c-0.4,0-0.7,0.3-0.9,0.8c-0.1,0.5-0.2,1-0.2,1.4V397z"/>
	<path class="st0" d="M412.5,398.4c-0.2,0.5-0.7,1.4-1.6,2.6c-0.9,1.2-1.9,2.5-3.1,3.8c-1.2,1.3-2.4,2.6-3.6,3.8
		c-1.2,1.2-2.3,1.9-3.1,2.3v-49c1.7-2.2,3.5-4.6,5.4-7.1c1.9-2.5,3.9-4.7,6-6.5V398.4z"/>
	<path class="st0" d="M448.8,382.3v-5.9h-31.7c2.3-3.5,4.4-6.2,6.2-8.1c1.8-1.9,2.7-2.8,2.8-2.8h27.6c0.6,0,1.3,0.2,2.1,0.7
		c0.8,0.5,1.5,1,2.1,1.7c0.6,0.7,1.2,1.4,1.6,2.1c0.4,0.8,0.7,1.5,0.7,2.1v31.4c0,0.7-0.2,1.4-0.7,2.2c-0.5,0.8-1,1.5-1.7,2.1
		c-0.7,0.7-1.4,1.2-2.1,1.7c-0.8,0.4-1.5,0.7-2.1,0.7h-28.5c-0.8,0-1.6-0.2-2.4-0.6c-0.8-0.4-1.5-0.9-2.1-1.6
		c-0.6-0.6-1.1-1.3-1.5-2.1c-0.4-0.8-0.6-1.6-0.6-2.3v-14.3c0-0.7,0.2-1.5,0.6-2.3c0.4-0.8,0.9-1.6,1.4-2.3c0.6-0.7,1.2-1.3,1.9-1.7
		c0.7-0.4,1.3-0.7,1.9-0.7H448.8z M429.7,397c0,0.4,0,0.8,0.1,1.4c0.1,0.5,0.4,0.8,0.9,0.8h18.1v-14.7l-8.6,8.7h-9.5
		c-0.4,0-0.7,0.3-0.9,0.8c-0.1,0.5-0.2,1-0.2,1.4V397z"/>
	<path class="st1" d="M159,398.1l9.5-28.1h12.1l-13,39.3c-1,1.4-1.9,2.5-2.9,3.4c-1,0.9-2.1,1.5-3.3,2h-4.5
		c-1.1-0.5-2.1-1.2-3.2-2.1c-1-0.9-1.9-2-2.6-3.3l-13.6-39.3h12.1L159,398.1z"/>
	<path class="st1" d="M196.7,397.9v5.9h31.7c-2.3,3.5-4.4,6.2-6.2,8.1c-1.8,1.9-2.7,2.8-2.8,2.8h-27.6c-0.7,0-1.4-0.2-2.2-0.7
		c-0.8-0.5-1.5-1-2.1-1.7c-0.6-0.7-1.2-1.4-1.6-2.1c-0.4-0.8-0.7-1.5-0.7-2.1v-31.4c0-0.6,0.2-1.3,0.7-2.1c0.5-0.8,1-1.5,1.7-2.2
		c0.7-0.7,1.4-1.2,2.1-1.7c0.8-0.4,1.5-0.7,2.1-0.7h28.5c0.8,0,1.6,0.2,2.4,0.6c0.8,0.4,1.5,0.9,2.1,1.6c0.6,0.6,1.1,1.3,1.5,2.1
		c0.4,0.8,0.6,1.6,0.6,2.3v14.3c0,0.7-0.2,1.5-0.6,2.3c-0.4,0.8-0.9,1.6-1.4,2.3c-0.6,0.7-1.2,1.3-1.9,1.7c-0.7,0.4-1.3,0.7-1.9,0.7
		H196.7z M215.8,383.1c0-0.4,0-0.8-0.1-1.4c-0.1-0.5-0.4-0.8-0.9-0.8h-18.1v14.7l8.5-8.7h9.5c0.4,0,0.7-0.3,0.9-0.8
		c0.1-0.5,0.2-1,0.2-1.4V383.1z"/>
	<path class="st1" d="M244.5,403c-0.2,0.5-0.7,1.4-1.6,2.6c-0.9,1.2-1.9,2.5-3.1,3.8c-1.2,1.3-2.4,2.6-3.6,3.8
		c-1.2,1.2-2.3,1.9-3.1,2.3v-49c1.7-2.2,3.5-4.6,5.4-7.1c1.9-2.5,3.9-4.7,6-6.5V403z"/>
	<path class="st1" d="M257.9,414.7c-1.1,0-2.1-0.3-2.9-0.8c-0.9-0.5-1.7-1.2-2.3-1.9c-0.7-0.8-1.2-1.7-1.6-2.7c-0.4-1-0.6-2-0.6-3
		v-27.6c0-1,0.2-2,0.6-3c0.4-1,0.9-1.9,1.6-2.8c0.7-0.8,1.4-1.5,2.3-2c0.9-0.5,1.9-0.8,2.9-0.8H291c-0.3,1-0.9,2-1.9,3.3
		c-0.9,1.2-1.9,2.4-2.9,3.6c-1,1.1-1.9,2.1-2.7,2.9c-0.8,0.8-1.2,1.2-1.3,1.2h-20.3v22.8H291c-0.3,0.9-0.9,2-1.9,3.3
		c-0.9,1.2-1.9,2.4-2.9,3.6c-1,1.1-1.9,2.1-2.7,2.9c-0.8,0.8-1.2,1.2-1.3,1.2H257.9z"/>
	<path class="st1" d="M307.1,370H333c0.6,0,1.3,0.3,2,0.9c0.7,0.6,1.3,1.3,1.9,2.1c0.6,0.8,1,1.7,1.4,2.6c0.3,0.9,0.5,1.6,0.5,2.1
		v37h-11.4v-33.5h-20.3v21.9c-0.2,0.5-0.7,1.4-1.6,2.6c-0.9,1.2-1.9,2.5-3.1,3.8c-1.2,1.3-2.4,2.6-3.6,3.8c-1.2,1.2-2.3,1.9-3.1,2.3
		v-49.1c1.7-2.2,3.5-4.6,5.4-7.1c1.9-2.5,3.9-4.7,6-6.5V370z"/>
	<path class="st1" d="M375.2,386.9V381h-31.7c2.3-3.5,4.4-6.2,6.2-8.1c1.8-1.9,2.7-2.9,2.8-2.9H380c0.6,0,1.3,0.2,2.1,0.7
		c0.8,0.5,1.5,1,2.1,1.7c0.6,0.7,1.2,1.4,1.6,2.1c0.4,0.8,0.7,1.5,0.7,2.1V408c0,0.7-0.2,1.4-0.7,2.2c-0.5,0.8-1,1.5-1.7,2.1
		c-0.7,0.7-1.4,1.2-2.1,1.7c-0.8,0.4-1.5,0.7-2.1,0.7h-28.5c-0.8,0-1.6-0.2-2.4-0.6c-0.8-0.4-1.5-0.9-2.1-1.6
		c-0.6-0.6-1.1-1.3-1.5-2.1c-0.4-0.8-0.6-1.6-0.6-2.3v-14.3c0-0.7,0.2-1.5,0.6-2.3c0.4-0.8,0.9-1.6,1.4-2.3c0.6-0.7,1.2-1.3,1.9-1.7
		c0.7-0.4,1.3-0.7,1.9-0.7H375.2z M356.1,401.6c0,0.4,0,0.8,0.1,1.4c0.1,0.5,0.4,0.8,0.9,0.8h18.1V389l-8.6,8.7h-9.5
		c-0.4,0-0.7,0.3-0.9,0.8c-0.1,0.5-0.2,1-0.2,1.4V401.6z"/>
	<path class="st1" d="M404.1,403c-0.2,0.5-0.7,1.4-1.6,2.6c-0.9,1.2-1.9,2.5-3.1,3.8c-1.2,1.3-2.4,2.6-3.6,3.8
		c-1.2,1.2-2.3,1.9-3.1,2.3v-49c1.7-2.2,3.5-4.6,5.4-7.1c1.9-2.5,3.9-4.7,6-6.5V403z"/>
	<path class="st1" d="M440.5,386.9V381h-31.7c2.3-3.5,4.4-6.2,6.2-8.1c1.8-1.9,2.7-2.9,2.8-2.9h27.6c0.6,0,1.3,0.2,2.1,0.7
		c0.8,0.5,1.5,1,2.1,1.7c0.6,0.7,1.2,1.4,1.6,2.1c0.4,0.8,0.7,1.5,0.7,2.1V408c0,0.7-0.2,1.4-0.7,2.2c-0.5,0.8-1,1.5-1.7,2.1
		c-0.7,0.7-1.4,1.2-2.1,1.7c-0.8,0.4-1.5,0.7-2.1,0.7h-28.5c-0.8,0-1.6-0.2-2.4-0.6c-0.8-0.4-1.5-0.9-2.1-1.6
		c-0.6-0.6-1.1-1.3-1.5-2.1c-0.4-0.8-0.6-1.6-0.6-2.3v-14.3c0-0.7,0.2-1.5,0.6-2.3c0.4-0.8,0.9-1.6,1.4-2.3c0.6-0.7,1.2-1.3,1.9-1.7
		c0.7-0.4,1.3-0.7,1.9-0.7H440.5z M421.4,401.6c0,0.4,0,0.8,0.1,1.4c0.1,0.5,0.4,0.8,0.9,0.8h18.1V389l-8.6,8.7h-9.5
		c-0.4,0-0.7,0.3-0.9,0.8c-0.1,0.5-0.2,1-0.2,1.4V401.6z"/>
	<path class="st2" d="M78,441.9c-29-1.1-52.1-25-52.1-54.3c0-13,4.6-24.9,12.2-34.3l0,0l0.2,0.1l10.5,15.8L68,398.6l12.2,0l12.2,0
		l19.4-29.2l10.5-15.8l0.1-0.1l0,0c7.6,9.3,12.2,21.3,12.2,34.2c0,29.3-23.1,53.1-52.1,54.3L78,441.9z M92.2,402H68.1v5.2h24.1V402z
		"/>
	<path class="st3" d="M92.2,366.8l-12,18.3l-12-18.3c3.2-2.8,7.4-4.5,12-4.5C84.8,362.3,89,364,92.2,366.8"/>
	<path class="st4" d="M100.6,354l-8.4,12.8c-3.2-2.8-7.4-4.5-12-4.5c-4.6,0-8.8,1.7-12,4.5L59.8,354c5.6-4.4,12.7-7,20.4-7
		C87.9,347,95,349.6,100.6,354"/>
	<path class="st1" d="M108.8,341.5L108.8,341.5l-8.2,12.5c-5.6-4.4-12.7-7-20.4-7c-7.7,0-14.8,2.6-20.4,7l-8.1-12.4l-0.1-0.1
		c8.3-5.2,18.1-8.1,28.6-8.1C90.7,333.3,100.5,336.3,108.8,341.5"/>
	<path class="st2" d="M80.2,347c-4.2,0-7.5,3.4-7.5,7.5c0,4.2,3.4,7.5,7.5,7.5c4.2,0,7.5-3.4,7.5-7.5C87.7,350.4,84.4,347,80.2,347
		 M80.7,348.2c0.8,0.1,1.5,0.3,2.2,0.6l-2.2,3.7V348.2z M79.6,352.5l-2.1-3.7c0.7-0.3,1.4-0.5,2.1-0.6V352.5z M78,355.1l-3.7,2.1
		c-0.3-0.7-0.5-1.4-0.6-2.1H78z M73.8,354c0.1-0.8,0.3-1.5,0.6-2.1L78,354H73.8z M79.6,361c-0.8-0.1-1.5-0.3-2.1-0.6l2.1-3.7V361z
		 M80.7,356.7l2.2,3.7c-0.7,0.3-1.4,0.5-2.2,0.6V356.7z M82.2,354l3.8-2.2c0.3,0.7,0.5,1.4,0.6,2.2H82.2z M86.6,355.1
		c-0.1,0.8-0.3,1.5-0.6,2.2l-3.7-2.2H86.6z M85.4,350.9l-3.7,2.2l2.2-3.7C84.5,349.7,85,350.3,85.4,350.9 M76.5,349.4l2.1,3.7
		l-3.7-2.1C75.3,350.3,75.9,349.8,76.5,349.4 M74.9,358.2l3.7-2.1l-2.1,3.7C75.9,359.4,75.3,358.9,74.9,358.2 M83.8,359.9l-2.2-3.7
		l3.7,2.2C85,358.9,84.5,359.4,83.8,359.9"/>
	<defs>
		<filter id="Adobe_OpacityMaskFilter" filterUnits="userSpaceOnUse" x="22.3" y="343.6" width="114.1" height="106">
			<feColorMatrix  type="matrix" values="1 0 0 0 0  0 1 0 0 0  0 0 1 0 0  0 0 0 1 0"/>
		</filter>
	</defs>
	<mask maskUnits="userSpaceOnUse" x="22.3" y="343.6" width="114.1" height="106" id="SVGID_3_">
		<g class="st5">
			<g>
				<defs>
					<rect id="SVGID_4_" x="22.3" y="343.6" width="114.1" height="106"/>
				</defs>
				<clipPath id="SVGID_5_" class="st6">
					<use xlink:href="#SVGID_4_"  style="overflow:visible;"/>
				</clipPath>
				<rect x="22.3" y="343.6" class="st7" width="114.2" height="106.3"/>
				<g class="st8">
					<path class="st9" d="M78,441.9c-29-1.1-52.1-25-52.1-54.3c0-13,4.6-24.9,12.2-34.3l0,0l0.2,0.1l10.5,15.8L68,398.6l12.2,0
						l12.2,0l19.4-29.2l10.5-15.8l0.1-0.1l0,0c7.6,9.3,12.2,21.3,12.2,34.2c0,29.3-23.1,53.1-52.1,54.3L78,441.9z"/>
					<path class="st10" d="M77.9,443.3L77.9,443.3c-29.8-1.2-53.5-25.6-53.5-55.7c0-13.3,4.7-25.6,12.5-35.1l0.1-0.1l1-0.9l1.3,1.1
						l10.6,16l18.9,28.6l11.4,0l11.4,0l18.9-28.6l10.6-16l1.3-1.1l0.9,0.9l0.1,0.1l0,0.1c7.8,9.6,12.5,21.8,12.5,35.1
						c0,30-23.7,54.5-53.5,55.7l0,0L77.9,443.3L77.9,443.3z M78,441.9l0.1-1.4L78,441.9z M27.3,387.7c0,28.5,22.5,51.7,50.8,52.9
						l4.3,0c28.2-1.1,50.7-24.4,50.7-52.8c0-12-4-23-10.7-31.9l-9.5,14.4L93.1,400l-12.9,0l-12.9,0l-19.8-29.9L38,355.8
						C31.2,364.6,27.3,375.7,27.3,387.7"/>
				</g>
			</g>
		</g>
	</mask>
	<g class="st11">
		<g>
			<defs>
				<rect id="SVGID_6_" x="22.3" y="343.6" width="114.1" height="106"/>
			</defs>
			<clipPath id="SVGID_7_">
				<use xlink:href="#SVGID_6_"  style="overflow:visible;"/>
			</clipPath>
			<path class="st12" d="M91.7,445.3c-1.8-0.1-2.9-0.8-3.4-2.1c-0.3,0.1-0.7,0.3-1.1,0.3c-2.2,0.1-3.6-2.1-2.6-4.1
				c-0.5-0.8-0.9-1.8-0.7-2.9c0.3-1.9,1.8-3.4,3.9-3.5c1.1-0.1,2.1,0.3,2.8,0.9c0.8-0.5,1.6-1,2.8-1c2.1,0.1,3.2,1.5,3.5,3.4
				c0.9,0.5,1.5,1.3,1.6,2.6c0.1,2.2-1.3,4.2-3.5,4.3C94.4,444.3,93.5,445.2,91.7,445.3L91.7,445.3z M91.9,440.4
				c2.5,0.3,4.2-1.5,4-4.2c-0.1-1.4-1.1-2.6-2.7-2.7c-0.6,0-1.2,0.2-1.6,0.5c-0.1,0.1-0.3,0.2-0.3,0.3c1,0.1,1.8,0.3,2.4,0.9
				c0.8,0.8,0.9,2.5,0,3.5c-0.8,0.9-3.1,1.2-4.1,0.2c-0.1,0-0.1-0.2-0.2-0.2C90.1,439.8,90.8,440.3,91.9,440.4 M88.6,433.8
				c-2.4-0.3-4.4,2.3-3.4,4.7c0.2-0.1,0.3-0.2,0.4-0.3c0.3-0.2,0.6-0.3,0.9-0.4c0.4-1.9,1.5-3.1,3.5-3.3
				C89.6,434.1,89.2,433.9,88.6,433.8 M93.5,436.8c-0.1-1.1-1.4-1.8-2.7-1.7c-1.9,0.1-3.2,1.1-3.4,2.9c-0.2,1.9,1.6,3.7,3.8,3.3
				c-1.2-0.4-2.6-1.3-2.7-2.8c-0.1-1.3,0.7-2.1,1.9-2.1c1.3,0,1.9,1,1.9,2.2C93.1,438.4,93.5,437.6,93.5,436.8 M95.9,440
				c-0.2,0.2-0.5,0.4-0.6,0.6c-0.1,0.5,0.1,1-0.1,1.5c1.8-0.3,3-3.1,1.7-4.8c0,0,0,0-0.1,0C96.7,438.4,96.4,439.3,95.9,440
				 M90.4,437.3c-0.3,0-0.7,0.2-0.8,0.5c-0.1,0.6,1.3,1.1,2,0.9C91.7,438,91.2,437.3,90.4,437.3 M91.5,442.3c-2.8,0.1-4.6-1.3-5-3.6
				c0,0,0,0,0,0c-0.5,0.3-1.1,0.8-1.2,1.4c-0.3,1.3,0.5,2.4,1.7,2.5c0.8,0,1.4-0.3,1.8-0.7c0.2,2.1,3.2,3,4.7,1.6
				c0.5-0.5,0.8-1.2,0.9-2.2C93.7,441.8,92.7,442.3,91.5,442.3"/>
			<path class="st13" d="M83,448.2c0.4-2.3,1.6-3.9,4.2-3.8c-1,0.9-2.1,1.9-3.1,2.8c-0.1,0.1-0.4,0.3-0.3,0.4
				c0.9-0.3,1.7-0.8,2.4-1.4c0.7-0.6,1.4-1.2,1.9-2c-0.4-0.4-1-0.7-1.7-0.7c-2.3,0-4.7,2.6-4.1,5.1c0.6,0.3,1.2,0.4,2.1,0.4
				c2.4-0.1,4.8-1.8,4.2-4.4C87.5,446.8,86,448.5,83,448.2 M98.5,447.4c-0.1-1.6-1.4-2.9-2.9-3.2c0.9,1,2.2,2,2,4
				c-0.8-1.3-1.9-2.5-3.4-3c0.9,1.2,2,2.3,2.8,3.6c-2.7-0.3-4-1.9-5.3-3.6l-0.1,0c0,0.2-0.1,0.4,0,0.7c0.2,1,1,2,1.9,2.6
				c1.1,0.8,2.8,1.3,4.4,0.9C98.4,449,98.6,448.3,98.5,447.4"/>
			<path class="st12" d="M108.3,433.2c-1.8-0.1-2.9-0.8-3.4-2.1c-0.3,0.1-0.7,0.3-1.1,0.3c-2.2,0.1-3.6-2.1-2.6-4.1
				c-0.5-0.8-0.9-1.8-0.7-2.9c0.3-1.9,1.8-3.4,3.9-3.5c1.1-0.1,2.1,0.3,2.8,0.9c0.8-0.5,1.6-1,2.8-1c2.1,0.1,3.2,1.5,3.5,3.4
				c0.9,0.5,1.5,1.3,1.6,2.6c0.1,2.3-1.3,4.2-3.5,4.3C111,432.2,110.1,433.1,108.3,433.2L108.3,433.2z M108.5,428.3
				c2.5,0.3,4.2-1.5,4-4.2c-0.1-1.4-1.1-2.6-2.7-2.7c-0.6,0-1.2,0.2-1.6,0.5c-0.1,0.1-0.3,0.2-0.3,0.3c1,0.1,1.8,0.3,2.4,0.9
				c0.8,0.8,0.9,2.5,0,3.5c-0.8,0.9-3.1,1.2-4.1,0.2c-0.1-0.1-0.1-0.2-0.2-0.2C106.7,427.7,107.4,428.2,108.5,428.3 M105.2,421.7
				c-2.4-0.3-4.4,2.3-3.4,4.7c0.1-0.1,0.3-0.2,0.4-0.3c0.3-0.2,0.6-0.3,0.9-0.4c0.4-1.9,1.5-3.1,3.5-3.3
				C106.2,422,105.8,421.8,105.2,421.7 M110,424.7c-0.1-1.1-1.4-1.8-2.7-1.7c-1.9,0.1-3.2,1.1-3.4,2.9c-0.2,1.9,1.6,3.7,3.8,3.3
				c-1.2-0.4-2.6-1.3-2.7-2.8c-0.1-1.3,0.8-2.1,1.9-2.1c1.3,0,1.9,1,1.9,2.2C109.6,426.3,110.1,425.5,110,424.7 M112.5,427.9
				c-0.2,0.2-0.5,0.4-0.6,0.6c-0.1,0.5,0.1,1-0.1,1.5c1.8-0.3,3-3.1,1.7-4.8c0,0,0,0-0.1,0C113.3,426.3,113,427.2,112.5,427.9
				 M107,425.2c-0.3,0-0.7,0.2-0.8,0.5c-0.1,0.6,1.3,1.1,2,0.9C108.3,425.9,107.8,425.2,107,425.2 M108.1,430.2
				c-2.8,0.1-4.6-1.3-5-3.6c0,0,0,0,0,0c-0.5,0.3-1.1,0.8-1.2,1.4c-0.3,1.3,0.5,2.4,1.7,2.5c0.8,0,1.4-0.3,1.8-0.7
				c0.2,2.1,3.2,3,4.7,1.6c0.5-0.5,0.8-1.2,0.9-2.2C110.3,429.7,109.3,430.2,108.1,430.2"/>
			<path class="st13" d="M99.6,436.1c0.4-2.3,1.6-3.9,4.2-3.8c-1,0.9-2.1,1.9-3.1,2.8c-0.1,0.1-0.4,0.3-0.3,0.4
				c0.9-0.3,1.7-0.8,2.4-1.4c0.7-0.6,1.4-1.2,1.9-2c-0.4-0.4-1-0.7-1.7-0.7c-2.3,0-4.7,2.6-4.1,5.1c0.6,0.3,1.2,0.4,2.1,0.4
				c2.4-0.1,4.8-1.8,4.2-4.4C104.1,434.7,102.6,436.4,99.6,436.1 M115.1,435.3c-0.1-1.6-1.4-2.9-2.9-3.2c0.9,1,2.2,2,2,4
				c-0.8-1.3-1.9-2.5-3.4-3c0.9,1.2,2,2.3,2.8,3.6c-2.7-0.3-4-1.9-5.3-3.6l-0.1,0c0,0.2-0.1,0.4,0,0.7c0.2,1,1,2,1.9,2.6
				c1.1,0.8,2.8,1.3,4.4,0.9C114.9,436.9,115.2,436.2,115.1,435.3"/>
			<path class="st12" d="M92.9,429.2c-1.8-0.1-2.9-0.8-3.4-2.1c-0.3,0.1-0.7,0.3-1.1,0.3c-2.2,0.1-3.6-2.1-2.6-4.1
				c-0.5-0.8-0.9-1.8-0.7-2.9c0.3-1.9,1.8-3.4,3.9-3.5c1.1-0.1,2.1,0.3,2.8,0.9c0.8-0.5,1.6-1,2.8-1c2.1,0.1,3.2,1.5,3.5,3.4
				c0.9,0.5,1.5,1.3,1.6,2.6c0.1,2.3-1.3,4.2-3.5,4.3C95.6,428.2,94.7,429.1,92.9,429.2L92.9,429.2z M93.1,424.3
				c2.5,0.3,4.2-1.5,4-4.2c-0.1-1.4-1.1-2.6-2.7-2.7c-0.6,0-1.2,0.2-1.6,0.5c-0.1,0.1-0.3,0.2-0.3,0.3c1,0.1,1.8,0.3,2.4,0.9
				c0.8,0.8,0.9,2.5,0,3.5c-0.8,0.9-3.1,1.2-4.1,0.2c-0.1-0.1-0.1-0.2-0.2-0.2C91.3,423.7,92,424.2,93.1,424.3 M89.8,417.7
				c-2.4-0.3-4.4,2.3-3.4,4.7c0.1-0.1,0.3-0.2,0.4-0.3c0.3-0.2,0.6-0.3,0.9-0.4c0.4-1.9,1.5-3.1,3.5-3.3
				C90.8,418,90.4,417.7,89.8,417.7 M94.7,420.7c-0.1-1.1-1.4-1.8-2.7-1.7c-1.9,0.1-3.2,1.1-3.4,2.9c-0.2,1.9,1.6,3.7,3.8,3.3
				c-1.2-0.4-2.6-1.3-2.7-2.8c-0.1-1.3,0.7-2.1,1.9-2.1c1.3,0,1.9,1,1.9,2.2C94.3,422.3,94.7,421.5,94.7,420.7 M97.1,423.9
				c-0.2,0.2-0.5,0.4-0.6,0.6c-0.1,0.5,0.1,1-0.1,1.5c1.8-0.3,3-3.1,1.7-4.8c0,0,0,0-0.1,0C97.9,422.3,97.6,423.2,97.1,423.9
				 M91.6,421.2c-0.3,0-0.7,0.2-0.8,0.5c-0.1,0.6,1.3,1.1,2,0.9C92.9,421.9,92.4,421.2,91.6,421.2 M92.7,426.2
				c-2.8,0.1-4.6-1.3-5-3.6c0,0,0,0,0,0c-0.5,0.3-1,0.8-1.2,1.4c-0.3,1.3,0.5,2.4,1.7,2.5c0.8,0,1.4-0.3,1.8-0.7
				c0.2,2.1,3.2,3,4.7,1.6c0.6-0.5,0.8-1.2,0.9-2.2C94.9,425.7,93.9,426.1,92.7,426.2"/>
			<path class="st13" d="M84.2,432.1c0.4-2.3,1.6-3.9,4.2-3.8c-1,0.9-2.1,1.9-3.1,2.8c-0.1,0.1-0.4,0.3-0.3,0.4
				c0.9-0.3,1.7-0.8,2.4-1.4c0.7-0.6,1.4-1.2,1.9-2c-0.4-0.4-1-0.7-1.7-0.7c-2.3,0-4.7,2.6-4.1,5.1c0.6,0.3,1.2,0.4,2.1,0.4
				c2.4-0.1,4.8-1.8,4.2-4.4C88.7,430.7,87.3,432.4,84.2,432.1 M99.8,431.3c-0.1-1.6-1.4-2.9-2.9-3.2c0.9,1,2.2,2,2,4
				c-0.8-1.3-1.9-2.5-3.4-3c0.9,1.2,2,2.3,2.8,3.6c-2.7-0.3-4-1.9-5.3-3.6l-0.1,0c0,0.2-0.1,0.4,0,0.7c0.2,1,1,2,1.9,2.6
				c1.1,0.8,2.8,1.3,4.4,0.9C99.6,432.9,99.8,432.1,99.8,431.3"/>
			<path class="st12" d="M109,416.8c-1.8-0.1-2.9-0.8-3.4-2.1c-0.3,0.1-0.7,0.3-1.1,0.3c-2.2,0.1-3.6-2.1-2.6-4.1
				c-0.5-0.8-0.9-1.8-0.7-2.9c0.3-1.9,1.8-3.4,3.9-3.5c1.1-0.1,2.1,0.3,2.8,0.9c0.8-0.5,1.6-1,2.8-1c2.1,0.1,3.2,1.5,3.5,3.4
				c0.9,0.5,1.5,1.3,1.6,2.6c0.1,2.3-1.3,4.2-3.5,4.3C111.7,415.8,110.8,416.7,109,416.8L109,416.8z M109.2,411.9
				c2.5,0.3,4.2-1.5,4-4.2c-0.1-1.4-1.1-2.6-2.7-2.7c-0.6,0-1.2,0.2-1.6,0.5c-0.1,0.1-0.3,0.2-0.3,0.3c1,0.1,1.8,0.3,2.4,0.9
				c0.8,0.8,0.9,2.5,0,3.5c-0.8,0.9-3.1,1.2-4.1,0.2c-0.1,0-0.1-0.2-0.2-0.2C107.4,411.3,108.1,411.8,109.2,411.9 M105.9,405.3
				c-2.4-0.3-4.4,2.3-3.4,4.7c0.1-0.1,0.3-0.2,0.4-0.3c0.3-0.2,0.6-0.3,0.9-0.4c0.4-1.9,1.5-3.1,3.5-3.3
				C106.9,405.6,106.5,405.3,105.9,405.3 M110.8,408.3c-0.1-1.1-1.4-1.8-2.7-1.7c-1.9,0.1-3.2,1.1-3.4,2.9c-0.2,1.9,1.6,3.7,3.8,3.3
				c-1.2-0.4-2.6-1.3-2.7-2.8c-0.1-1.3,0.7-2.1,1.9-2.1c1.3,0,1.9,1,1.9,2.2C110.4,409.9,110.8,409.1,110.8,408.3 M113.2,411.5
				c-0.2,0.2-0.5,0.4-0.6,0.6c-0.1,0.5,0.1,1-0.1,1.5c1.8-0.3,3-3.1,1.7-4.8c0,0,0,0-0.1,0C114,409.9,113.7,410.8,113.2,411.5
				 M107.8,408.8c-0.3,0-0.7,0.2-0.8,0.5c-0.1,0.6,1.3,1.1,2,0.9C109,409.5,108.5,408.8,107.8,408.8 M108.8,413.8
				c-2.8,0.1-4.6-1.3-5-3.6c0,0,0,0,0,0c-0.5,0.3-1.1,0.8-1.2,1.4c-0.3,1.3,0.5,2.4,1.7,2.5c0.8,0,1.4-0.3,1.8-0.7
				c0.2,2.1,3.2,3,4.7,1.6c0.6-0.5,0.8-1.2,0.9-2.2C111,413.3,110,413.7,108.8,413.8"/>
			<path class="st13" d="M100.3,419.7c0.4-2.3,1.6-3.9,4.2-3.8c-1,0.9-2.1,1.9-3.1,2.8c-0.1,0.1-0.4,0.3-0.3,0.4
				c0.9-0.3,1.7-0.8,2.4-1.4c0.7-0.6,1.4-1.2,1.9-2c-0.4-0.4-1-0.7-1.7-0.7c-2.3,0-4.7,2.6-4.1,5.1c0.6,0.3,1.2,0.4,2.1,0.4
				c2.4-0.1,4.8-1.8,4.2-4.4C104.8,418.3,103.4,420,100.3,419.7 M115.9,418.9c-0.1-1.6-1.4-2.9-2.9-3.2c0.9,1,2.2,2,2,4
				c-0.8-1.3-1.9-2.5-3.4-3c0.9,1.2,2,2.3,2.8,3.6c-2.7-0.3-4-1.9-5.3-3.6l-0.1,0c0,0.2-0.1,0.4,0,0.7c0.2,1.1,1,2,1.9,2.6
				c1.1,0.8,2.8,1.3,4.4,0.9C115.7,420.5,115.9,419.7,115.9,418.9"/>
			<path class="st12" d="M124.3,423.4c-1.8-0.1-2.9-0.8-3.4-2.1c-0.3,0.1-0.7,0.3-1.1,0.3c-2.2,0.1-3.6-2.1-2.6-4.1
				c-0.5-0.8-0.9-1.8-0.7-2.9c0.3-1.9,1.8-3.4,3.9-3.5c1.1-0.1,2.1,0.3,2.8,0.9c0.8-0.5,1.6-1,2.8-1c2.1,0.1,3.2,1.5,3.5,3.4
				c0.9,0.5,1.5,1.3,1.6,2.6c0.1,2.3-1.3,4.2-3.5,4.3C127,422.4,126.1,423.3,124.3,423.4L124.3,423.4z M124.5,418.6
				c2.5,0.3,4.2-1.5,4-4.2c-0.1-1.4-1.1-2.6-2.7-2.7c-0.6,0-1.2,0.2-1.6,0.5c-0.1,0.1-0.3,0.2-0.3,0.3c1,0.1,1.8,0.3,2.4,0.9
				c0.8,0.8,0.9,2.5,0,3.5c-0.8,0.9-3.1,1.2-4.1,0.2c-0.1-0.1-0.1-0.2-0.2-0.2C122.7,417.9,123.4,418.4,124.5,418.6 M121.2,411.9
				c-2.4-0.3-4.4,2.3-3.4,4.7c0.1-0.1,0.3-0.2,0.4-0.3c0.3-0.2,0.6-0.3,0.9-0.4c0.4-1.9,1.5-3.1,3.5-3.3
				C122.2,412.2,121.8,412,121.2,411.9 M126.1,414.9c-0.1-1.1-1.4-1.8-2.7-1.7c-1.9,0.1-3.2,1.1-3.4,2.9c-0.2,1.9,1.6,3.7,3.8,3.3
				c-1.2-0.4-2.6-1.3-2.7-2.8c-0.1-1.3,0.8-2.1,1.9-2.1c1.3,0,1.9,1,1.9,2.2C125.7,416.5,126.1,415.8,126.1,414.9 M128.5,418.1
				c-0.2,0.2-0.5,0.4-0.6,0.6c-0.1,0.5,0.1,1-0.1,1.5c1.8-0.3,3-3.1,1.7-4.8c0,0,0,0-0.1,0C129.3,416.5,129,417.5,128.5,418.1
				 M123.1,415.4c-0.3,0-0.7,0.2-0.8,0.5c-0.1,0.6,1.3,1.1,2,0.9C124.3,416.1,123.8,415.4,123.1,415.4 M124.1,420.4
				c-2.8,0.1-4.6-1.3-5-3.6c0,0,0,0,0,0c-0.5,0.3-1.1,0.8-1.2,1.4c-0.3,1.3,0.5,2.4,1.7,2.5c0.8,0,1.4-0.3,1.8-0.7
				c0.2,2.1,3.2,3,4.7,1.6c0.6-0.5,0.8-1.2,0.9-2.2C126.3,420,125.3,420.4,124.1,420.4"/>
			<path class="st13" d="M115.6,426.4c0.4-2.3,1.6-3.9,4.2-3.8c-1,0.9-2.1,1.9-3.1,2.8c-0.1,0.1-0.4,0.3-0.3,0.4
				c0.9-0.3,1.7-0.8,2.4-1.4c0.7-0.6,1.4-1.2,1.9-2c-0.4-0.4-1-0.7-1.7-0.7c-2.3,0-4.7,2.6-4.1,5.1c0.6,0.3,1.2,0.4,2.1,0.4
				c2.4-0.1,4.8-1.8,4.2-4.4C120.1,425,118.7,426.6,115.6,426.4 M131.2,425.6c-0.1-1.6-1.4-2.9-2.9-3.2c0.9,1,2.2,2,2,4
				c-0.8-1.3-1.9-2.5-3.4-3c0.9,1.2,2,2.3,2.8,3.6c-2.7-0.3-4-1.9-5.3-3.6l-0.1,0c0,0.2-0.1,0.4,0,0.7c0.2,1,1,2,1.9,2.6
				c1.1,0.8,2.8,1.3,4.4,0.9C131,427.1,131.2,426.4,131.2,425.6"/>
			<path class="st12" d="M126.9,406.6c-1.8-0.1-2.9-0.8-3.4-2.1c-0.3,0.1-0.7,0.3-1.1,0.3c-2.2,0.1-3.6-2.1-2.6-4.1
				c-0.5-0.8-0.9-1.8-0.7-2.9c0.3-1.9,1.8-3.4,3.9-3.5c1.1-0.1,2.1,0.3,2.8,0.9c0.8-0.5,1.6-1,2.8-1c2.1,0,3.2,1.5,3.5,3.4
				c0.9,0.5,1.5,1.3,1.6,2.6c0.1,2.3-1.3,4.2-3.5,4.3C129.5,405.6,128.6,406.5,126.9,406.6L126.9,406.6z M127.1,401.7
				c2.5,0.3,4.2-1.5,4-4.2c-0.1-1.4-1.1-2.6-2.7-2.7c-0.6,0-1.2,0.2-1.6,0.5c-0.1,0.1-0.3,0.2-0.3,0.3c1,0.1,1.8,0.3,2.4,0.9
				c0.8,0.8,0.9,2.5,0,3.5c-0.8,0.9-3.1,1.2-4.1,0.2c-0.1-0.1-0.1-0.2-0.2-0.2C125.2,401.1,125.9,401.6,127.1,401.7 M123.7,395.1
				c-2.4-0.3-4.4,2.3-3.4,4.7c0.1-0.1,0.3-0.2,0.4-0.3c0.3-0.2,0.6-0.3,0.9-0.4c0.4-2,1.5-3.1,3.5-3.3
				C124.7,395.4,124.3,395.1,123.7,395.1 M128.6,398.1c-0.1-1.1-1.4-1.8-2.7-1.7c-1.9,0.1-3.2,1.1-3.4,2.9c-0.2,1.9,1.6,3.7,3.8,3.3
				c-1.2-0.4-2.6-1.3-2.7-2.8c-0.1-1.3,0.7-2.1,1.9-2.1c1.3,0,1.9,1,1.9,2.2C128.2,399.7,128.7,398.9,128.6,398.1 M131,401.3
				c-0.2,0.2-0.5,0.4-0.6,0.6c-0.1,0.5,0.1,1-0.1,1.5c1.8-0.3,3-3.1,1.7-4.8c0,0,0,0-0.1,0C131.9,399.7,131.5,400.6,131,401.3
				 M125.6,398.6c-0.3,0-0.7,0.2-0.8,0.5c-0.1,0.6,1.3,1.1,2,0.9C126.8,399.3,126.4,398.6,125.6,398.6 M126.6,403.6
				c-2.8,0.1-4.6-1.3-5-3.6c0,0,0,0,0,0c-0.5,0.3-1.1,0.8-1.2,1.4c-0.3,1.3,0.5,2.4,1.7,2.5c0.8,0,1.4-0.3,1.8-0.7
				c0.2,2.1,3.2,3,4.7,1.6c0.6-0.5,0.8-1.2,0.9-2.2C128.8,403.1,127.9,403.5,126.6,403.6"/>
			<path class="st13" d="M118.2,409.5c0.4-2.3,1.6-3.9,4.2-3.8c-1,0.9-2.1,1.9-3.1,2.8c-0.1,0.1-0.4,0.3-0.3,0.4
				c0.9-0.3,1.7-0.8,2.4-1.4c0.7-0.6,1.4-1.2,1.9-2c-0.4-0.4-1-0.7-1.7-0.7c-2.3,0-4.7,2.6-4.1,5.1c0.6,0.3,1.2,0.4,2.1,0.4
				c2.4-0.1,4.8-1.8,4.2-4.4C122.7,408.1,121.2,409.8,118.2,409.5 M133.7,408.7c-0.1-1.6-1.4-2.9-2.9-3.2c0.9,1,2.2,2,2,4
				c-0.8-1.3-1.9-2.5-3.4-3c0.9,1.2,2,2.3,2.8,3.6c-2.7-0.3-4-1.9-5.3-3.6l-0.1,0c0,0.2-0.1,0.4,0,0.7c0.2,1,1,2,1.9,2.6
				c1.1,0.8,2.8,1.3,4.4,0.9C133.5,410.3,133.8,409.6,133.7,408.7"/>
			<path class="st12" d="M111,400.8c-1.8-0.1-2.9-0.8-3.4-2.1c-0.3,0.1-0.7,0.3-1.1,0.3c-2.2,0.1-3.6-2.1-2.6-4.1
				c-0.5-0.8-0.9-1.8-0.7-2.9c0.3-1.9,1.8-3.4,3.9-3.5c1.1-0.1,2.1,0.3,2.8,0.9c0.8-0.5,1.6-1,2.8-1c2.1,0.1,3.2,1.5,3.5,3.4
				c0.9,0.5,1.5,1.3,1.6,2.6c0.1,2.3-1.3,4.2-3.5,4.3C113.7,399.8,112.8,400.7,111,400.8L111,400.8z M111.2,396
				c2.5,0.3,4.2-1.5,4-4.2c-0.1-1.4-1.1-2.6-2.7-2.7c-0.6,0-1.2,0.2-1.6,0.5c-0.1,0.1-0.3,0.2-0.3,0.3c1,0.1,1.8,0.3,2.4,0.9
				c0.8,0.8,0.9,2.5,0,3.5c-0.8,0.9-3.1,1.2-4.1,0.2c-0.1-0.1-0.1-0.2-0.2-0.2C109.4,395.3,110.1,395.8,111.2,396 M107.9,389.3
				c-2.4-0.3-4.4,2.3-3.4,4.7c0.1-0.1,0.3-0.2,0.4-0.3c0.3-0.2,0.6-0.3,0.9-0.4c0.4-1.9,1.5-3.1,3.5-3.3
				C108.9,389.6,108.5,389.4,107.9,389.3 M112.8,392.3c-0.1-1.1-1.4-1.8-2.7-1.7c-1.9,0.1-3.2,1.1-3.4,2.9c-0.2,1.9,1.6,3.7,3.8,3.3
				c-1.2-0.4-2.6-1.3-2.7-2.8c-0.1-1.3,0.7-2.1,1.9-2.1c1.3,0,1.9,1,1.9,2.2C112.4,393.9,112.9,393.2,112.8,392.3 M115.2,395.5
				c-0.2,0.2-0.5,0.4-0.6,0.6c-0.1,0.5,0.1,1-0.1,1.5c1.8-0.3,3-3.1,1.7-4.8c0,0,0,0-0.1,0C116.1,393.9,115.7,394.9,115.2,395.5
				 M109.8,392.8c-0.3,0-0.7,0.2-0.8,0.5c-0.1,0.6,1.3,1.1,2,0.9C111,393.5,110.5,392.8,109.8,392.8 M110.8,397.8
				c-2.8,0.1-4.6-1.3-5-3.6c0,0,0,0,0,0c-0.5,0.3-1.1,0.8-1.2,1.4c-0.3,1.3,0.5,2.4,1.7,2.5c0.8,0,1.4-0.3,1.8-0.7
				c0.2,2.1,3.2,3,4.7,1.6c0.6-0.5,0.8-1.2,0.9-2.2C113,397.4,112,397.8,110.8,397.8"/>
			<path class="st13" d="M102.3,403.8c0.4-2.3,1.6-3.9,4.2-3.8c-1,0.9-2.1,1.9-3.1,2.8c-0.1,0.1-0.4,0.3-0.3,0.4
				c0.9-0.3,1.7-0.8,2.4-1.4c0.7-0.6,1.4-1.2,1.9-2c-0.4-0.4-1-0.7-1.7-0.7c-2.3,0-4.7,2.6-4.1,5.1c0.6,0.3,1.2,0.4,2.1,0.4
				c2.4-0.1,4.8-1.8,4.2-4.4C106.8,402.4,105.4,404,102.3,403.8 M117.9,403c-0.1-1.6-1.4-2.9-2.9-3.2c0.9,1,2.2,2,2,4
				c-0.8-1.3-1.9-2.5-3.4-3c0.9,1.2,2,2.3,2.8,3.6c-2.7-0.3-4-1.9-5.3-3.6l-0.1,0c0,0.2-0.1,0.4,0,0.7c0.2,1,1,2,1.9,2.6
				c1.1,0.8,2.8,1.3,4.4,0.9C117.7,404.5,117.9,403.8,117.9,403"/>
			<path class="st12" d="M127.1,389.1c-1.8-0.1-2.9-0.8-3.4-2.1c-0.3,0.1-0.7,0.3-1.1,0.3c-2.2,0.1-3.6-2.1-2.6-4.1
				c-0.5-0.8-0.9-1.8-0.7-2.9c0.3-1.9,1.8-3.4,3.9-3.5c1.1-0.1,2.1,0.3,2.8,0.9c0.8-0.5,1.6-1,2.8-1c2.1,0.1,3.2,1.5,3.5,3.4
				c0.9,0.5,1.5,1.3,1.6,2.6c0.1,2.3-1.3,4.2-3.5,4.3C129.8,388.1,128.9,389,127.1,389.1L127.1,389.1z M127.3,384.3
				c2.5,0.3,4.2-1.5,4-4.2c-0.1-1.4-1.1-2.6-2.7-2.7c-0.6,0-1.2,0.2-1.6,0.5c-0.1,0.1-0.3,0.2-0.3,0.3c1,0.1,1.8,0.3,2.4,0.9
				c0.8,0.8,0.9,2.5,0,3.5c-0.8,0.9-3.1,1.2-4.1,0.2c-0.1-0.1-0.1-0.2-0.2-0.2C125.5,383.6,126.2,384.1,127.3,384.3 M124,377.6
				c-2.4-0.3-4.4,2.3-3.4,4.7c0.2-0.1,0.3-0.2,0.4-0.3c0.3-0.2,0.6-0.3,0.9-0.4c0.4-1.9,1.5-3.1,3.5-3.3
				C125,377.9,124.6,377.7,124,377.6 M128.9,380.6c-0.1-1.1-1.4-1.8-2.7-1.7c-1.9,0.1-3.2,1.1-3.4,2.9c-0.2,1.9,1.6,3.7,3.8,3.3
				c-1.2-0.4-2.6-1.3-2.7-2.8c-0.1-1.3,0.7-2.1,1.9-2.1c1.3,0,1.9,1,1.9,2.2C128.5,382.2,128.9,381.5,128.9,380.6 M131.3,383.8
				c-0.2,0.2-0.5,0.4-0.6,0.6c-0.1,0.5,0.1,1-0.1,1.5c1.8-0.3,3-3.1,1.7-4.8c0,0,0,0-0.1,0C132.1,382.3,131.8,383.2,131.3,383.8
				 M125.9,381.1c-0.3,0-0.7,0.2-0.8,0.5c-0.1,0.6,1.3,1.1,2,0.9C127.1,381.8,126.6,381.1,125.9,381.1 M126.9,386.1
				c-2.8,0.1-4.6-1.3-5-3.6c0,0,0,0,0,0c-0.5,0.3-1.1,0.8-1.2,1.4c-0.3,1.3,0.5,2.4,1.7,2.5c0.8,0,1.4-0.3,1.8-0.7
				c0.2,2.1,3.2,3,4.7,1.6c0.5-0.5,0.8-1.2,0.9-2.2C129.1,385.7,128.1,386.1,126.9,386.1"/>
			<path class="st13" d="M118.4,392.1c0.4-2.3,1.6-3.9,4.2-3.8c-1,0.9-2.1,1.9-3.1,2.8c-0.1,0.1-0.4,0.3-0.3,0.4
				c0.9-0.3,1.7-0.8,2.4-1.4c0.7-0.6,1.4-1.2,1.9-2c-0.4-0.4-1-0.7-1.7-0.7c-2.3,0-4.7,2.6-4.1,5.1c0.6,0.3,1.2,0.4,2.1,0.4
				c2.4-0.1,4.8-1.8,4.2-4.4C122.9,390.7,121.5,392.3,118.4,392.1 M134,391.3c-0.1-1.6-1.4-2.9-2.9-3.2c0.9,1,2.2,2,2,4
				c-0.8-1.3-1.9-2.5-3.4-3c0.9,1.2,2,2.3,2.8,3.6c-2.7-0.3-4-1.9-5.3-3.6l-0.1,0c0,0.2-0.1,0.4,0,0.7c0.2,1,1,2,1.9,2.6
				c1.1,0.8,2.8,1.3,4.4,0.9C133.8,392.8,134,392.1,134,391.3"/>
			<path class="st12" d="M128.2,372.4c-1.8-0.1-2.9-0.8-3.4-2.1c-0.3,0.1-0.7,0.3-1.1,0.3c-2.2,0.1-3.6-2.1-2.6-4.1
				c-0.5-0.8-0.9-1.8-0.7-2.9c0.3-1.9,1.8-3.4,3.9-3.5c1.1-0.1,2.1,0.3,2.8,0.9c0.8-0.5,1.6-1,2.8-1c2.1,0.1,3.2,1.5,3.5,3.4
				c0.9,0.5,1.5,1.3,1.6,2.6c0.1,2.3-1.3,4.2-3.5,4.3C130.8,371.4,129.9,372.3,128.2,372.4L128.2,372.4z M128.3,367.5
				c2.5,0.3,4.2-1.5,4-4.2c-0.1-1.4-1.1-2.6-2.7-2.7c-0.6,0-1.2,0.2-1.6,0.5c-0.1,0.1-0.3,0.2-0.3,0.3c1,0.1,1.8,0.3,2.4,0.9
				c0.8,0.8,0.9,2.5,0,3.5c-0.8,0.9-3.1,1.2-4.1,0.2c-0.1-0.1-0.1-0.2-0.2-0.2C126.5,366.9,127.2,367.4,128.3,367.5 M125,360.9
				c-2.4-0.3-4.4,2.3-3.4,4.7c0.1-0.1,0.3-0.2,0.4-0.3c0.3-0.2,0.6-0.3,0.9-0.4c0.4-2,1.5-3.1,3.5-3.3
				C126,361.2,125.6,361,125,360.9 M129.9,363.9c-0.1-1.1-1.4-1.8-2.7-1.7c-1.9,0.1-3.2,1.1-3.4,2.9c-0.2,1.9,1.6,3.7,3.8,3.3
				c-1.2-0.4-2.6-1.3-2.7-2.8c-0.1-1.3,0.7-2.1,1.9-2.1c1.3,0,1.9,1,1.9,2.2C129.5,365.5,130,364.7,129.9,363.9 M132.3,367.1
				c-0.2,0.2-0.5,0.4-0.6,0.6c-0.1,0.5,0.1,1-0.1,1.5c1.8-0.3,3-3.1,1.7-4.8c0,0,0,0-0.1,0C133.2,365.5,132.8,366.4,132.3,367.1
				 M126.9,364.4c-0.3,0-0.7,0.2-0.8,0.5c-0.1,0.6,1.3,1.1,2,0.9C128.1,365.1,127.6,364.4,126.9,364.4 M127.9,369.4
				c-2.8,0.1-4.6-1.3-5-3.6c0,0,0,0,0,0c-0.5,0.3-1.1,0.8-1.2,1.4c-0.3,1.3,0.5,2.4,1.7,2.5c0.8,0,1.4-0.3,1.8-0.7
				c0.2,2.1,3.2,3,4.7,1.6c0.6-0.5,0.8-1.2,0.9-2.2C130.1,368.9,129.1,369.4,127.9,369.4"/>
			<path class="st13" d="M119.4,375.3c0.4-2.3,1.6-3.9,4.2-3.8c-1,0.9-2.1,1.9-3.1,2.8c-0.1,0.1-0.4,0.3-0.3,0.4
				c0.9-0.3,1.7-0.8,2.4-1.4c0.7-0.6,1.4-1.2,1.9-2c-0.4-0.4-1-0.7-1.7-0.7c-2.3,0-4.7,2.6-4.1,5.1c0.6,0.3,1.2,0.4,2.1,0.4
				c2.4-0.1,4.8-1.8,4.2-4.4C124,373.9,122.5,375.6,119.4,375.3 M135,374.5c-0.1-1.6-1.4-2.9-2.9-3.2c0.9,1,2.2,2,2,4
				c-0.8-1.3-1.9-2.5-3.4-3c0.9,1.2,2,2.3,2.8,3.6c-2.7-0.3-4-1.9-5.3-3.6l-0.1,0c0,0.2-0.1,0.4,0,0.7c0.2,1.1,1,2,1.9,2.6
				c1.1,0.8,2.8,1.3,4.4,0.9C134.8,376.1,135,375.4,135,374.5"/>
			<path class="st12" d="M112.8,366.9c-1.8-0.1-2.9-0.8-3.4-2.1c-0.3,0.1-0.7,0.3-1.1,0.3c-2.2,0.1-3.6-2.1-2.6-4.1
				c-0.5-0.8-0.9-1.8-0.7-2.9c0.3-1.9,1.8-3.4,3.9-3.5c1.1-0.1,2.1,0.3,2.8,0.9c0.8-0.5,1.6-1,2.8-1c2.1,0.1,3.2,1.5,3.5,3.4
				c0.9,0.5,1.5,1.3,1.6,2.6c0.1,2.3-1.3,4.2-3.5,4.3C115.5,366,114.5,366.8,112.8,366.9L112.8,366.9z M113,362.1
				c2.5,0.3,4.2-1.5,4-4.2c-0.1-1.4-1.1-2.6-2.7-2.7c-0.6,0-1.2,0.2-1.6,0.5c-0.1,0.1-0.3,0.2-0.3,0.3c1,0.1,1.8,0.3,2.4,0.9
				c0.8,0.8,0.9,2.5,0,3.5c-0.8,0.9-3.1,1.2-4.1,0.2c-0.1-0.1-0.1-0.2-0.2-0.2C111.1,361.4,111.9,362,113,362.1 M109.7,355.4
				c-2.4-0.3-4.4,2.3-3.4,4.7c0.1-0.1,0.3-0.2,0.4-0.3c0.3-0.2,0.6-0.3,0.9-0.4c0.4-1.9,1.5-3.1,3.5-3.3
				C110.7,355.7,110.3,355.5,109.7,355.4 M114.5,358.4c-0.1-1.1-1.4-1.8-2.7-1.7c-1.9,0.1-3.2,1.1-3.4,2.9c-0.2,1.9,1.6,3.7,3.8,3.3
				c-1.2-0.4-2.6-1.3-2.7-2.8c-0.1-1.3,0.7-2.1,1.9-2.1c1.3,0,1.9,1,1.9,2.2C114.1,360,114.6,359.3,114.5,358.4 M117,361.6
				c-0.2,0.2-0.5,0.4-0.6,0.6c-0.1,0.5,0.1,1-0.1,1.5c1.8-0.3,3-3.1,1.7-4.8c0,0,0,0-0.1,0C117.8,360.1,117.5,361,117,361.6
				 M111.5,358.9c-0.3,0-0.7,0.2-0.8,0.5c-0.1,0.6,1.3,1.1,2,0.9C112.8,359.6,112.3,358.9,111.5,358.9 M112.6,364
				c-2.8,0.1-4.6-1.3-5-3.6c0,0,0,0,0,0c-0.5,0.3-1.1,0.8-1.2,1.4c-0.3,1.3,0.5,2.4,1.7,2.5c0.8,0,1.4-0.3,1.8-0.7
				c0.2,2.1,3.2,3,4.7,1.6c0.6-0.5,0.8-1.2,0.9-2.2C114.7,363.5,113.8,363.9,112.6,364"/>
			<path class="st13" d="M104.1,369.9c0.4-2.3,1.6-3.9,4.2-3.8c-1,0.9-2.1,1.9-3.1,2.8c-0.1,0.1-0.4,0.3-0.3,0.4
				c0.9-0.3,1.7-0.8,2.4-1.4c0.7-0.6,1.4-1.2,1.9-2c-0.4-0.4-1-0.7-1.7-0.7c-2.3,0-4.7,2.6-4.1,5.1c0.6,0.3,1.2,0.4,2.1,0.4
				c2.4-0.1,4.8-1.8,4.2-4.4C108.6,368.5,107.1,370.1,104.1,369.9 M119.6,369.1c-0.1-1.6-1.4-2.9-2.9-3.2c0.9,1,2.2,2,2,4
				c-0.8-1.3-1.9-2.5-3.4-3c0.9,1.2,2,2.3,2.8,3.6c-2.7-0.3-4-1.9-5.3-3.6l-0.1,0c0,0.2-0.1,0.4,0,0.7c0.2,1,1,2,1.9,2.6
				c1.1,0.8,2.8,1.3,4.4,0.9C119.4,370.6,119.7,369.9,119.6,369.1"/>
			<path class="st14" d="M129.6,356.1c-1.8-0.1-2.9-0.8-3.4-2.1c-0.3,0.1-0.7,0.3-1.1,0.3c-2.2,0.1-3.6-2.1-2.6-4.1
				c-0.5-0.8-0.9-1.8-0.7-2.9c0.3-1.9,1.8-3.4,3.9-3.5c1.1-0.1,2.1,0.3,2.8,0.9c0.8-0.5,1.6-1,2.8-1c2.1,0.1,3.2,1.5,3.5,3.4
				c0.9,0.5,1.5,1.3,1.6,2.6c0.1,2.3-1.3,4.2-3.5,4.3C132.2,355.1,131.3,356,129.6,356.1L129.6,356.1z M129.8,351.2
				c2.5,0.3,4.2-1.5,4-4.2c-0.1-1.4-1.1-2.6-2.7-2.7c-0.6,0-1.2,0.2-1.6,0.5c-0.1,0.1-0.3,0.2-0.3,0.3c1,0.1,1.8,0.3,2.4,0.9
				c0.8,0.8,0.9,2.5,0,3.5c-0.8,0.9-3.1,1.2-4.1,0.2c-0.1,0-0.1-0.2-0.2-0.2C127.9,350.6,128.6,351.1,129.8,351.2 M126.4,344.6
				c-2.4-0.3-4.4,2.3-3.4,4.7c0.1-0.1,0.3-0.2,0.4-0.3c0.3-0.2,0.6-0.3,0.9-0.4c0.4-1.9,1.5-3.1,3.5-3.3
				C127.4,344.9,127,344.7,126.4,344.6 M131.3,347.6c-0.1-1.1-1.4-1.8-2.7-1.7c-1.9,0.1-3.2,1.1-3.4,2.9c-0.2,1.9,1.6,3.7,3.8,3.3
				c-1.2-0.4-2.6-1.3-2.7-2.8c-0.1-1.3,0.8-2.1,1.9-2.1c1.3,0,1.9,1,1.9,2.2C130.9,349.2,131.4,348.4,131.3,347.6 M133.7,350.8
				c-0.2,0.2-0.5,0.4-0.6,0.6c-0.1,0.5,0.1,1-0.1,1.5c1.8-0.3,3-3.1,1.7-4.8c0,0,0,0-0.1,0C134.6,349.2,134.2,350.1,133.7,350.8
				 M128.3,348.1c-0.3,0-0.7,0.2-0.8,0.5c-0.1,0.6,1.3,1.1,2,0.9C129.5,348.8,129.1,348.1,128.3,348.1 M129.3,353.1
				c-2.8,0.1-4.6-1.3-5-3.6c0,0,0,0,0,0c-0.5,0.3-1.1,0.8-1.2,1.4c-0.3,1.3,0.5,2.4,1.7,2.5c0.8,0,1.4-0.3,1.8-0.7
				c0.2,2.1,3.2,3,4.7,1.6c0.6-0.5,0.8-1.2,0.9-2.2C131.5,352.6,130.6,353.1,129.3,353.1"/>
			<path class="st13" d="M120.9,359.1c0.4-2.3,1.6-3.9,4.2-3.8c-1,0.9-2.1,1.9-3.1,2.8c-0.1,0.1-0.4,0.3-0.3,0.4
				c0.9-0.3,1.7-0.8,2.4-1.4c0.7-0.6,1.4-1.2,1.9-2c-0.4-0.4-1-0.7-1.7-0.7c-2.3,0-4.7,2.6-4.1,5.1c0.6,0.3,1.2,0.4,2.1,0.4
				c2.4-0.1,4.8-1.8,4.2-4.4C125.4,357.7,123.9,359.3,120.9,359.1 M136.4,358.2c-0.1-1.6-1.4-2.9-2.9-3.2c0.9,1,2.2,2,2,4
				c-0.8-1.3-1.9-2.5-3.4-3c0.9,1.2,2,2.3,2.8,3.6c-2.7-0.3-4-1.9-5.3-3.6l-0.1,0c0,0.2-0.1,0.4,0,0.7c0.2,1.1,1,2,1.9,2.6
				c1.1,0.8,2.8,1.3,4.4,0.9C136.2,359.8,136.5,359.1,136.4,358.2"/>
			<path class="st12" d="M112.2,384.2c-1.8-0.1-2.9-0.8-3.4-2.1c-0.3,0.1-0.7,0.3-1.1,0.3c-2.2,0.1-3.6-2.1-2.6-4.1
				c-0.5-0.8-0.9-1.8-0.7-2.9c0.3-1.9,1.8-3.4,3.9-3.5c1.1-0.1,2.1,0.3,2.8,0.9c0.8-0.5,1.6-1,2.8-1c2.1,0.1,3.2,1.5,3.5,3.4
				c0.9,0.5,1.5,1.3,1.6,2.6c0.1,2.3-1.3,4.2-3.5,4.3C114.8,383.2,113.9,384.1,112.2,384.2L112.2,384.2z M112.4,379.3
				c2.5,0.3,4.2-1.5,4-4.2c-0.1-1.4-1.1-2.6-2.7-2.7c-0.6,0-1.2,0.2-1.6,0.5c-0.1,0.1-0.3,0.2-0.3,0.3c1,0.1,1.8,0.3,2.4,0.9
				c0.8,0.8,0.9,2.5,0,3.5c-0.8,0.9-3.1,1.2-4.1,0.2c-0.1-0.1-0.1-0.2-0.2-0.2C110.5,378.7,111.2,379.2,112.4,379.3 M109,372.7
				c-2.4-0.3-4.4,2.3-3.4,4.7c0.1-0.1,0.3-0.2,0.4-0.3c0.3-0.2,0.6-0.3,0.9-0.4c0.4-1.9,1.5-3.1,3.5-3.3
				C110.1,373,109.6,372.8,109,372.7 M113.9,375.7c-0.1-1.1-1.4-1.8-2.7-1.7c-1.9,0.1-3.2,1.1-3.4,2.9c-0.2,1.9,1.6,3.7,3.8,3.3
				c-1.2-0.4-2.6-1.3-2.7-2.8c-0.1-1.3,0.7-2.1,1.9-2.1c1.3,0,1.9,1,1.9,2.2C113.5,377.3,114,376.6,113.9,375.7 M116.3,378.9
				c-0.2,0.2-0.5,0.4-0.6,0.6c-0.1,0.5,0.1,1-0.1,1.5c1.8-0.3,3-3.1,1.7-4.8c0,0,0,0-0.1,0C117.2,377.3,116.9,378.2,116.3,378.9
				 M110.9,376.2c-0.3,0-0.7,0.2-0.8,0.5c-0.1,0.6,1.3,1.1,2,0.9C112.1,376.9,111.7,376.2,110.9,376.2 M111.9,381.2
				c-2.8,0.1-4.6-1.3-5-3.6c0,0,0,0,0,0c-0.5,0.3-1.1,0.8-1.2,1.4c-0.3,1.3,0.5,2.4,1.7,2.5c0.8,0,1.4-0.3,1.8-0.7
				c0.2,2.1,3.2,3,4.7,1.6c0.6-0.5,0.8-1.2,0.9-2.2C114.1,380.7,113.2,381.2,111.9,381.2"/>
			<path class="st13" d="M103.5,387.2c0.4-2.3,1.6-3.9,4.2-3.8c-1,0.9-2.1,1.9-3.1,2.8c-0.1,0.1-0.4,0.3-0.3,0.4
				c0.9-0.3,1.7-0.8,2.4-1.4c0.7-0.6,1.4-1.2,1.9-2c-0.4-0.4-1-0.7-1.7-0.7c-2.3,0-4.7,2.6-4.1,5.1c0.6,0.3,1.2,0.4,2.1,0.4
				c2.4-0.1,4.8-1.8,4.2-4.4C108,385.8,106.5,387.4,103.5,387.2 M119,386.3c-0.1-1.6-1.4-2.9-2.9-3.2c0.9,1,2.2,2,2,4
				c-0.8-1.3-1.9-2.5-3.4-3c0.9,1.2,2,2.4,2.8,3.6c-2.7-0.3-4-1.9-5.3-3.6l-0.1,0c0,0.2-0.1,0.4,0,0.7c0.2,1,1,2,1.9,2.6
				c1.1,0.8,2.8,1.3,4.4,0.9C118.8,387.9,119.1,387.2,119,386.3"/>
			<path class="st12" d="M95.9,395.5c-1.8-0.1-2.9-0.8-3.4-2.1c-0.3,0.1-0.7,0.3-1.1,0.3c-2.2,0.1-3.6-2.1-2.6-4.1
				c-0.5-0.8-0.9-1.8-0.7-2.9c0.3-1.9,1.8-3.4,3.9-3.5c1.1-0.1,2.1,0.3,2.8,0.9c0.8-0.5,1.6-1,2.8-1c2.1,0.1,3.2,1.5,3.5,3.4
				c0.9,0.5,1.5,1.3,1.6,2.6c0.1,2.3-1.3,4.2-3.5,4.3C98.5,394.5,97.6,395.4,95.9,395.5L95.9,395.5z M96,390.6
				c2.5,0.3,4.2-1.5,4-4.2c-0.1-1.4-1.1-2.6-2.7-2.7c-0.6,0-1.2,0.2-1.6,0.5c-0.1,0.1-0.3,0.2-0.3,0.3c1,0.1,1.8,0.3,2.4,0.9
				c0.8,0.8,0.9,2.5,0,3.5c-0.8,0.9-3.1,1.2-4.1,0.2c-0.1-0.1-0.1-0.2-0.2-0.2C94.2,390,94.9,390.5,96,390.6 M92.7,384
				c-2.4-0.3-4.4,2.3-3.4,4.7c0.1-0.1,0.3-0.2,0.4-0.3c0.3-0.2,0.6-0.3,0.9-0.4c0.4-1.9,1.5-3.1,3.5-3.3
				C93.7,384.3,93.3,384.1,92.7,384 M97.6,387c-0.1-1.1-1.4-1.8-2.7-1.7c-1.9,0.1-3.2,1.1-3.4,2.9c-0.2,1.9,1.6,3.7,3.8,3.3
				c-1.2-0.4-2.6-1.3-2.7-2.8c-0.1-1.3,0.7-2.1,1.9-2.1c1.3,0,1.9,1,1.9,2.2C97.2,388.6,97.7,387.8,97.6,387 M100,390.2
				c-0.2,0.2-0.5,0.4-0.6,0.6c-0.1,0.5,0.1,1-0.1,1.5c1.8-0.3,3-3.1,1.7-4.8c0,0,0,0-0.1,0C100.9,388.6,100.5,389.5,100,390.2
				 M94.6,387.5c-0.3,0-0.7,0.2-0.8,0.5c-0.1,0.6,1.3,1.1,2,0.9C95.8,388.2,95.3,387.5,94.6,387.5 M95.6,392.5
				c-2.8,0.1-4.6-1.3-5-3.6c0,0,0,0,0,0c-0.5,0.3-1.1,0.8-1.2,1.4c-0.3,1.3,0.5,2.4,1.7,2.5c0.8,0,1.4-0.3,1.8-0.7
				c0.2,2.1,3.2,3,4.7,1.6c0.6-0.5,0.8-1.2,0.9-2.2C97.8,392,96.8,392.5,95.6,392.5"/>
			<path class="st13" d="M87.1,398.4c0.4-2.3,1.6-3.9,4.2-3.8c-1,0.9-2.1,1.9-3.1,2.8c-0.1,0.1-0.4,0.3-0.3,0.4
				c0.9-0.3,1.7-0.8,2.4-1.4c0.7-0.6,1.4-1.2,1.9-2c-0.4-0.4-1-0.7-1.7-0.7c-2.3,0-4.7,2.6-4.1,5.1c0.6,0.3,1.2,0.4,2.1,0.4
				c2.4-0.1,4.8-1.8,4.2-4.4C91.7,397,90.2,398.7,87.1,398.4 M102.7,397.6c-0.1-1.6-1.4-2.9-2.9-3.2c0.9,1,2.2,2,2,4
				c-0.8-1.3-1.9-2.5-3.4-3c0.9,1.2,2,2.3,2.8,3.6c-2.7-0.3-4-1.9-5.3-3.6l-0.1,0c0,0.2-0.1,0.4,0,0.7c0.2,1.1,1,2,1.9,2.6
				c1.1,0.8,2.8,1.3,4.4,0.9C102.5,399.2,102.7,398.5,102.7,397.6"/>
			<path class="st12" d="M93.4,412.3c-1.8-0.1-2.9-0.8-3.4-2.1c-0.3,0.1-0.7,0.3-1.1,0.3c-2.2,0.1-3.6-2.1-2.6-4.1
				c-0.5-0.8-0.9-1.8-0.7-2.9c0.3-1.9,1.8-3.4,3.9-3.5c1.1-0.1,2.1,0.3,2.8,0.9c0.8-0.5,1.6-1,2.8-1c2.1,0.1,3.2,1.5,3.5,3.4
				c0.9,0.5,1.5,1.3,1.6,2.6c0.1,2.3-1.3,4.2-3.5,4.3C96.1,411.3,95.2,412.2,93.4,412.3L93.4,412.3z M93.6,407.4
				c2.5,0.3,4.2-1.5,4-4.2c-0.1-1.4-1.1-2.6-2.7-2.7c-0.6,0-1.2,0.2-1.6,0.5c-0.1,0.1-0.3,0.2-0.3,0.3c1,0.1,1.8,0.3,2.4,0.9
				c0.8,0.8,0.9,2.5,0,3.5c-0.8,0.9-3.1,1.2-4.1,0.2c-0.1-0.1-0.1-0.2-0.2-0.2C91.8,406.8,92.5,407.3,93.6,407.4 M90.3,400.8
				c-2.4-0.3-4.4,2.3-3.4,4.7c0.1-0.1,0.3-0.2,0.4-0.3c0.3-0.2,0.6-0.3,0.9-0.4c0.4-1.9,1.5-3.1,3.5-3.3
				C91.3,401.1,90.9,400.9,90.3,400.8 M95.2,403.8c-0.1-1.1-1.4-1.8-2.7-1.7c-1.9,0.1-3.2,1.1-3.4,2.9c-0.2,1.9,1.6,3.7,3.8,3.3
				c-1.2-0.4-2.6-1.3-2.7-2.8c-0.1-1.3,0.7-2.1,1.9-2.1c1.3,0,1.9,1,1.9,2.2C94.8,405.4,95.2,404.6,95.2,403.8 M97.6,407
				c-0.2,0.2-0.5,0.4-0.6,0.6c-0.1,0.5,0.1,1-0.1,1.5c1.8-0.3,3-3.1,1.7-4.8c0,0,0,0-0.1,0C98.4,405.4,98.1,406.3,97.6,407
				 M92.1,404.3c-0.3,0-0.7,0.2-0.8,0.5c-0.1,0.6,1.3,1.1,2,0.9C93.4,405,92.9,404.3,92.1,404.3 M93.2,409.3c-2.8,0.1-4.6-1.3-5-3.6
				c0,0,0,0,0,0c-0.5,0.3-1.1,0.8-1.2,1.4c-0.3,1.3,0.5,2.4,1.7,2.5c0.8,0,1.4-0.3,1.8-0.7c0.2,2.1,3.2,3,4.7,1.6
				c0.5-0.5,0.8-1.2,0.9-2.2C95.4,408.8,94.4,409.3,93.2,409.3"/>
			<path class="st13" d="M84.7,415.2c0.4-2.3,1.6-3.9,4.2-3.8c-1,0.9-2.1,1.9-3.1,2.8c-0.1,0.1-0.4,0.3-0.3,0.4
				c0.9-0.3,1.7-0.8,2.4-1.4c0.7-0.6,1.4-1.2,1.9-2c-0.4-0.4-1-0.7-1.7-0.7c-2.3,0-4.7,2.6-4.1,5.1c0.6,0.3,1.2,0.4,2.1,0.4
				c2.4-0.1,4.8-1.8,4.2-4.4C89.2,413.8,87.7,415.5,84.7,415.2 M100.2,414.4c-0.1-1.6-1.4-2.9-2.9-3.2c0.9,1,2.2,2,2,4
				c-0.8-1.3-1.9-2.5-3.4-3c0.9,1.2,2,2.3,2.8,3.6c-2.7-0.3-4-1.9-5.3-3.6l-0.1,0c0,0.2-0.1,0.4,0,0.7c0.2,1,1,2,1.9,2.6
				c1.1,0.8,2.8,1.3,4.4,0.9C100.1,416,100.3,415.3,100.2,414.4"/>
			<path class="st12" d="M67,445.2c-1.7-0.1-2.6-0.9-3.2-2.2c-2.2,0-3.6-2-3.5-4.3c0.1-1.3,0.6-2.1,1.6-2.6c0.2-1.9,1.4-3.4,3.5-3.4
				c1.2,0,2,0.5,2.8,1c0.7-0.6,1.7-1,2.8-0.9c2,0.2,3.5,1.6,3.9,3.5c0.2,1.1-0.2,2.1-0.7,2.9c1,2-0.4,4.2-2.6,4.1
				c-0.4,0-0.8-0.2-1.1-0.3C69.9,444.5,68.8,445.2,67,445.2L67,445.2z M69.2,438.9c-0.1,0-0.1,0.1-0.2,0.2c-1,0.9-3.2,0.7-4.1-0.2
				c-0.9-1-0.7-2.6,0-3.5c0.6-0.6,1.4-0.9,2.4-0.9c0.1-0.2-0.2-0.2-0.3-0.3c-0.4-0.3-1-0.5-1.6-0.5c-1.6,0-2.6,1.3-2.7,2.7
				c-0.2,2.7,1.5,4.4,4,4.2C68,440.3,68.7,439.8,69.2,438.9 M68.8,434.5c2,0.2,3.1,1.4,3.5,3.3c0.3,0.1,0.6,0.2,0.9,0.4
				c0.2,0.1,0.3,0.3,0.4,0.3c1-2.4-1-4.9-3.4-4.7C69.6,433.9,69.2,434.1,68.8,434.5 M66.4,438.6c0-1.2,0.6-2.2,1.9-2.2
				c1.2,0,2,0.8,1.9,2.1c-0.1,1.5-1.5,2.4-2.7,2.8c2.1,0.4,3.9-1.4,3.8-3.3c-0.1-1.8-1.5-2.8-3.4-2.9c-1.3-0.1-2.6,0.6-2.7,1.7
				C65.2,437.6,65.7,438.4,66.4,438.6 M61.9,437.3C61.8,437.3,61.8,437.3,61.9,437.3c-1.4,1.7-0.2,4.5,1.6,4.8c-0.2-0.5,0-1-0.1-1.5
				c-0.1-0.2-0.4-0.4-0.6-0.6C62.4,439.3,62,438.4,61.9,437.3 M67.1,438.7c0.7,0.2,2.1-0.3,2-0.9c0-0.3-0.5-0.5-0.8-0.5
				C67.5,437.3,67.1,438,67.1,438.7 M64.4,441.3c0.1,1,0.3,1.7,0.9,2.2c1.5,1.4,4.5,0.5,4.7-1.6c0.5,0.4,1,0.7,1.8,0.7
				c1.2-0.1,2-1.3,1.7-2.5c-0.2-0.6-0.7-1.1-1.2-1.4c0,0,0,0,0,0c-0.3,2.3-2.2,3.7-5,3.6C66.1,442.3,65.1,441.8,64.4,441.3"/>
			<path class="st13" d="M70.3,444.8c-0.6,2.6,1.8,4.3,4.2,4.4c0.8,0,1.5-0.1,2.1-0.4c0.6-2.6-1.8-5.1-4.1-5.1
				c-0.8,0-1.3,0.3-1.7,0.7c0.5,0.8,1.2,1.4,1.9,2c0.7,0.6,1.5,1.1,2.4,1.4c0-0.1-0.2-0.3-0.3-0.4c-0.9-0.9-2-2-3.1-2.8
				c2.6-0.1,3.8,1.5,4.2,3.8C72.7,448.5,71.2,446.8,70.3,444.8 M60.8,449.5c1.5,0.4,3.2-0.1,4.4-0.9c0.8-0.6,1.7-1.6,1.9-2.6
				c0-0.2,0-0.5,0-0.7l-0.1,0c-1.2,1.7-2.6,3.3-5.3,3.6c0.8-1.2,1.9-2.4,2.8-3.6c-1.5,0.5-2.6,1.7-3.4,3c-0.1-2,1.1-3,2-4
				c-1.5,0.3-2.8,1.6-2.9,3.2C60.1,448.3,60.4,449,60.8,449.5"/>
			<path class="st12" d="M50.4,433.1c-1.7-0.1-2.6-0.9-3.2-2.2c-2.2,0-3.6-2-3.5-4.3c0.1-1.3,0.6-2.1,1.6-2.6
				c0.2-1.9,1.4-3.4,3.5-3.4c1.2,0,2,0.5,2.8,1c0.7-0.6,1.7-1,2.8-0.9c2,0.2,3.5,1.6,3.9,3.5c0.2,1.1-0.2,2.1-0.7,2.9
				c1,2-0.4,4.2-2.6,4.1c-0.4,0-0.8-0.2-1.1-0.3C53.3,432.4,52.2,433.1,50.4,433.1L50.4,433.1z M52.6,426.8c-0.1,0-0.1,0.1-0.2,0.2
				c-1,0.9-3.2,0.7-4.1-0.2c-0.9-1-0.7-2.6,0-3.5c0.6-0.6,1.4-0.9,2.4-0.9c0.1-0.2-0.2-0.2-0.3-0.3c-0.4-0.3-1-0.5-1.6-0.5
				c-1.6,0-2.6,1.3-2.7,2.7c-0.2,2.7,1.5,4.4,4,4.2C51.4,428.2,52.1,427.7,52.6,426.8 M52.2,422.4c2,0.2,3.1,1.4,3.5,3.3
				c0.3,0.1,0.6,0.2,0.9,0.4c0.2,0.1,0.3,0.3,0.4,0.3c1-2.4-1-4.9-3.4-4.7C53,421.8,52.6,422,52.2,422.4 M49.8,426.4
				c0-1.2,0.6-2.2,1.9-2.2c1.2,0,2,0.8,1.9,2.1c-0.1,1.5-1.5,2.4-2.7,2.8c2.1,0.4,3.9-1.4,3.8-3.3c-0.1-1.8-1.5-2.8-3.4-2.9
				c-1.3-0.1-2.6,0.6-2.7,1.7C48.6,425.5,49.1,426.3,49.8,426.4 M45.3,425.2C45.3,425.2,45.3,425.2,45.3,425.2
				c-1.4,1.7-0.2,4.5,1.6,4.8c-0.2-0.5,0-1-0.1-1.5c-0.1-0.2-0.4-0.4-0.6-0.6C45.8,427.2,45.4,426.3,45.3,425.2 M50.5,426.6
				c0.7,0.2,2.1-0.3,2-0.9c0-0.3-0.5-0.5-0.8-0.5C51,425.2,50.5,425.9,50.5,426.6 M47.8,429.2c0.1,1,0.3,1.7,0.9,2.2
				c1.5,1.4,4.5,0.5,4.7-1.6c0.5,0.4,1,0.7,1.8,0.7c1.2-0.1,2-1.3,1.7-2.5c-0.2-0.6-0.7-1.1-1.2-1.4c0,0,0,0,0,0
				c-0.3,2.3-2.2,3.7-5,3.6C49.5,430.2,48.5,429.7,47.8,429.2"/>
			<path class="st13" d="M53.7,432.7c-0.6,2.6,1.8,4.3,4.2,4.4c0.8,0,1.5-0.1,2.1-0.4c0.6-2.6-1.8-5.1-4.1-5.1
				c-0.8,0-1.3,0.3-1.7,0.7c0.5,0.8,1.2,1.4,1.9,2c0.7,0.6,1.5,1,2.4,1.4c0-0.1-0.2-0.3-0.3-0.4c-0.9-0.9-2-2-3.1-2.8
				c2.6-0.1,3.8,1.5,4.2,3.8C56.1,436.4,54.6,434.7,53.7,432.7 M44.2,437.4c1.5,0.4,3.2-0.1,4.4-0.9c0.8-0.6,1.7-1.6,1.9-2.6
				c0-0.2,0-0.5,0-0.7l-0.1,0c-1.2,1.7-2.6,3.3-5.3,3.6c0.8-1.2,1.9-2.4,2.8-3.6c-1.5,0.5-2.6,1.7-3.4,3c-0.1-2,1.1-3,2-4
				c-1.5,0.3-2.8,1.6-2.9,3.2C43.6,436.2,43.8,436.9,44.2,437.4"/>
			<path class="st12" d="M65.8,429.1c-1.7-0.1-2.6-0.9-3.2-2.2c-2.2,0-3.6-2-3.5-4.3c0.1-1.3,0.6-2.1,1.6-2.6
				c0.2-1.9,1.4-3.4,3.5-3.4c1.2,0,2,0.5,2.8,1c0.7-0.6,1.7-1,2.8-0.9c2,0.2,3.5,1.6,3.9,3.5c0.2,1.1-0.2,2.1-0.7,2.9
				c1,2-0.4,4.2-2.6,4.1c-0.4,0-0.8-0.2-1.1-0.3C68.7,428.3,67.6,429.1,65.8,429.1L65.8,429.1z M68,422.8c-0.1,0-0.1,0.1-0.2,0.2
				c-1,0.9-3.2,0.7-4.1-0.2c-0.9-1-0.7-2.6,0-3.5c0.6-0.6,1.4-0.9,2.4-0.9c0.1-0.2-0.2-0.2-0.3-0.3c-0.4-0.3-1-0.5-1.6-0.5
				c-1.6,0-2.6,1.3-2.7,2.7c-0.2,2.7,1.5,4.4,4,4.2C66.8,424.2,67.5,423.7,68,422.8 M67.6,418.3c2,0.2,3.1,1.4,3.5,3.3
				c0.3,0.1,0.6,0.2,0.9,0.4c0.2,0.1,0.3,0.3,0.4,0.3c1-2.4-1-4.9-3.4-4.7C68.4,417.7,67.9,418,67.6,418.3 M65.2,422.4
				c0-1.2,0.6-2.2,1.9-2.2c1.2,0,2,0.8,1.9,2.1c-0.1,1.5-1.5,2.4-2.7,2.8c2.1,0.4,3.9-1.4,3.8-3.3c-0.1-1.8-1.5-2.8-3.4-2.9
				c-1.3-0.1-2.6,0.6-2.7,1.7C64,421.5,64.5,422.3,65.2,422.4 M60.7,421.2C60.6,421.2,60.6,421.2,60.7,421.2
				c-1.4,1.7-0.2,4.5,1.6,4.8c-0.2-0.5,0-1-0.1-1.5c-0.1-0.2-0.4-0.4-0.6-0.6C61.2,423.2,60.8,422.3,60.7,421.2 M65.9,422.6
				c0.7,0.2,2.1-0.3,2-0.9c0-0.3-0.5-0.5-0.8-0.5C66.3,421.2,65.9,421.9,65.9,422.6 M63.2,425.2c0.1,1,0.3,1.7,0.9,2.2
				c1.5,1.4,4.5,0.5,4.7-1.6c0.5,0.4,1,0.7,1.8,0.7c1.2-0.1,2-1.3,1.7-2.5c-0.2-0.6-0.7-1.1-1.2-1.4c0,0,0,0,0,0
				c-0.3,2.3-2.2,3.7-5,3.6C64.8,426.1,63.9,425.7,63.2,425.2"/>
			<path class="st13" d="M69.1,428.7c-0.6,2.6,1.8,4.3,4.2,4.4c0.8,0,1.5-0.1,2.1-0.4c0.6-2.6-1.8-5.1-4.1-5.1
				c-0.8,0-1.3,0.3-1.7,0.7c0.5,0.8,1.2,1.4,1.9,2c0.7,0.6,1.5,1,2.4,1.4c0-0.1-0.2-0.3-0.3-0.4c-0.9-0.9-2-2-3.1-2.8
				c2.6-0.1,3.8,1.5,4.2,3.8C71.5,432.4,70,430.7,69.1,428.7 M59.6,433.4c1.5,0.4,3.2-0.1,4.4-0.9c0.8-0.6,1.7-1.6,1.9-2.6
				c0-0.2,0-0.5,0-0.7l-0.1,0c-1.2,1.7-2.6,3.3-5.3,3.6c0.8-1.2,1.9-2.4,2.8-3.6c-1.5,0.5-2.6,1.7-3.4,3c-0.1-2,1.1-3,2-4
				c-1.5,0.3-2.8,1.6-2.9,3.2C58.9,432.1,59.2,432.9,59.6,433.4"/>
			<path class="st12" d="M49.7,416.7c-1.7-0.1-2.6-0.9-3.2-2.2c-2.2,0-3.6-2-3.5-4.3c0.1-1.3,0.6-2.1,1.6-2.6
				c0.2-1.9,1.4-3.4,3.5-3.4c1.2,0,2,0.5,2.8,1c0.7-0.6,1.7-1,2.8-0.9c2,0.2,3.5,1.6,3.9,3.5c0.2,1.1-0.2,2.1-0.7,2.9
				c1,2-0.4,4.2-2.6,4.1c-0.4,0-0.8-0.2-1.1-0.3C52.6,415.9,51.5,416.7,49.7,416.7L49.7,416.7z M51.9,410.4c-0.1,0-0.1,0.1-0.2,0.2
				c-1,0.9-3.2,0.7-4.1-0.2c-0.9-1-0.7-2.6,0-3.5c0.6-0.6,1.3-0.9,2.4-0.9c0.1-0.2-0.2-0.2-0.3-0.3c-0.4-0.3-1-0.5-1.6-0.5
				c-1.6,0-2.6,1.3-2.7,2.7c-0.2,2.7,1.5,4.4,4,4.2C50.7,411.8,51.4,411.3,51.9,410.4 M51.5,405.9c2,0.2,3.1,1.4,3.5,3.3
				c0.3,0.1,0.6,0.2,0.9,0.4c0.2,0.1,0.3,0.3,0.4,0.3c1-2.4-1-4.9-3.4-4.7C52.3,405.3,51.8,405.6,51.5,405.9 M49.1,410
				c0-1.2,0.6-2.2,1.9-2.2c1.2,0,2,0.8,1.9,2.1c-0.1,1.5-1.5,2.4-2.7,2.8c2.1,0.4,3.9-1.4,3.8-3.3c-0.1-1.8-1.5-2.8-3.4-2.9
				c-1.3-0.1-2.6,0.6-2.7,1.7C47.9,409.1,48.4,409.9,49.1,410 M44.6,408.8C44.5,408.8,44.5,408.8,44.6,408.8
				c-1.4,1.7-0.2,4.5,1.6,4.8c-0.2-0.5,0-1-0.1-1.5c-0.1-0.2-0.4-0.4-0.6-0.6C45.1,410.8,44.7,409.9,44.6,408.8 M49.8,410.2
				c0.7,0.2,2.1-0.3,2-0.9c0-0.3-0.5-0.5-0.8-0.5C50.2,408.8,49.8,409.5,49.8,410.2 M47,412.8c0.1,1,0.3,1.7,0.9,2.2
				c1.5,1.4,4.5,0.5,4.7-1.6c0.5,0.4,1,0.7,1.8,0.7c1.2-0.1,2-1.3,1.7-2.5c-0.2-0.6-0.7-1.1-1.2-1.4c0,0,0,0,0,0
				c-0.3,2.3-2.2,3.7-5,3.6C48.7,413.7,47.8,413.3,47,412.8"/>
			<path class="st13" d="M53,416.3c-0.6,2.6,1.8,4.3,4.2,4.4c0.8,0,1.5-0.1,2.1-0.4c0.6-2.6-1.8-5.1-4.1-5.1c-0.8,0-1.3,0.3-1.7,0.7
				c0.5,0.8,1.2,1.4,1.9,2c0.7,0.6,1.5,1.1,2.4,1.4c0-0.1-0.2-0.3-0.3-0.4c-0.9-0.9-2-2-3.1-2.8c2.6-0.1,3.8,1.5,4.2,3.8
				C55.4,420,53.9,418.3,53,416.3 M43.5,421c1.5,0.4,3.2-0.1,4.4-0.9c0.8-0.6,1.7-1.6,1.9-2.6c0-0.2,0-0.5,0-0.7l-0.1,0
				c-1.2,1.7-2.6,3.3-5.3,3.6c0.8-1.2,1.9-2.4,2.8-3.6c-1.5,0.5-2.6,1.7-3.4,3c-0.1-2,1.1-3,2-4c-1.5,0.3-2.8,1.6-2.9,3.2
				C42.8,419.7,43.1,420.5,43.5,421"/>
			<path class="st12" d="M34.4,423.4c-1.7-0.1-2.6-0.9-3.2-2.2c-2.2,0-3.6-2-3.5-4.3c0.1-1.3,0.6-2.1,1.6-2.6
				c0.2-1.9,1.4-3.4,3.5-3.4c1.2,0,2,0.5,2.8,1c0.7-0.6,1.7-1,2.8-0.9c2,0.2,3.5,1.6,3.9,3.5c0.2,1.1-0.2,2.1-0.7,2.9
				c1,2-0.4,4.2-2.6,4.1c-0.4,0-0.8-0.2-1.1-0.3C37.3,422.6,36.2,423.3,34.4,423.4L34.4,423.4z M36.6,417.1c-0.1,0-0.1,0.1-0.2,0.2
				c-1,0.9-3.2,0.7-4.1-0.2c-0.9-1-0.7-2.6,0-3.5c0.6-0.6,1.4-0.9,2.4-0.9c0.1-0.2-0.2-0.2-0.3-0.3c-0.4-0.3-1-0.5-1.6-0.5
				c-1.6,0-2.6,1.3-2.7,2.7c-0.2,2.7,1.5,4.4,4,4.2C35.4,418.4,36.1,417.9,36.6,417.1 M36.2,412.6c2,0.2,3.1,1.4,3.5,3.3
				c0.3,0.1,0.6,0.2,0.9,0.4c0.2,0.1,0.3,0.3,0.4,0.3c1-2.4-1-4.9-3.4-4.7C37,412,36.5,412.2,36.2,412.6 M33.8,416.7
				c0-1.2,0.6-2.2,1.9-2.2c1.2,0,2,0.8,1.9,2.1c-0.1,1.5-1.5,2.4-2.7,2.8c2.1,0.4,3.9-1.4,3.8-3.3c-0.1-1.8-1.5-2.8-3.4-2.9
				c-1.3-0.1-2.6,0.6-2.7,1.7C32.6,415.8,33.1,416.5,33.8,416.7 M29.3,415.4C29.2,415.4,29.2,415.5,29.3,415.4
				c-1.4,1.7-0.2,4.5,1.6,4.8c-0.2-0.5,0-1-0.1-1.5c-0.1-0.2-0.4-0.4-0.6-0.6C29.8,417.5,29.4,416.5,29.3,415.4 M34.5,416.8
				c0.7,0.2,2.1-0.3,2-0.9c0-0.3-0.5-0.5-0.8-0.5C34.9,415.4,34.5,416.1,34.5,416.8 M31.7,419.4c0.1,1,0.3,1.7,0.9,2.2
				c1.5,1.4,4.5,0.5,4.7-1.6c0.5,0.4,1,0.7,1.8,0.7c1.2-0.1,2-1.3,1.7-2.5c-0.2-0.6-0.7-1.1-1.2-1.4c0,0,0,0,0,0
				c-0.3,2.3-2.2,3.7-5,3.6C33.4,420.4,32.5,420,31.7,419.4"/>
			<path class="st13" d="M37.7,422.9c-0.6,2.6,1.8,4.3,4.2,4.4c0.8,0,1.5-0.1,2.1-0.4c0.6-2.6-1.8-5.1-4.1-5.1
				c-0.8,0-1.3,0.3-1.7,0.7c0.5,0.8,1.2,1.4,1.9,2c0.7,0.6,1.5,1.1,2.4,1.4c0-0.1-0.2-0.3-0.3-0.4c-0.9-0.9-2-2-3.1-2.8
				c2.6-0.1,3.8,1.5,4.2,3.8C40.1,426.6,38.6,425,37.7,422.9 M28.2,427.6c1.5,0.4,3.2-0.1,4.4-0.9c0.8-0.6,1.7-1.6,1.9-2.6
				c0-0.2,0-0.5,0-0.7l-0.1,0c-1.2,1.7-2.6,3.3-5.3,3.6c0.7-1.2,1.9-2.4,2.8-3.6c-1.5,0.5-2.6,1.7-3.4,3c-0.1-2,1.1-3,2-4
				c-1.5,0.3-2.8,1.6-2.9,3.2C27.5,426.4,27.8,427.1,28.2,427.6"/>
			<path class="st12" d="M31.8,406.5c-1.7-0.1-2.6-0.9-3.2-2.2c-2.2,0-3.6-2-3.5-4.3c0.1-1.3,0.6-2.1,1.6-2.6
				c0.2-1.9,1.4-3.4,3.5-3.4c1.2,0,2,0.5,2.8,1c0.7-0.6,1.7-1,2.8-0.9c2,0.2,3.5,1.6,3.9,3.5c0.2,1.1-0.2,2.1-0.7,2.9
				c1,2-0.4,4.2-2.6,4.1c-0.4,0-0.8-0.2-1.1-0.3C34.8,405.7,33.7,406.5,31.8,406.5L31.8,406.5z M34.1,400.2c-0.1,0-0.1,0.1-0.2,0.2
				c-1,0.9-3.2,0.7-4.1-0.2c-0.9-1-0.7-2.6,0-3.5c0.6-0.6,1.3-0.9,2.4-0.9c0.1-0.2-0.2-0.2-0.3-0.3c-0.4-0.3-1-0.5-1.6-0.5
				c-1.6,0-2.6,1.3-2.7,2.7c-0.2,2.7,1.5,4.4,4,4.2C32.8,401.6,33.5,401.1,34.1,400.2 M33.6,395.8c2,0.2,3.1,1.4,3.5,3.3
				c0.3,0.1,0.6,0.2,0.9,0.4c0.2,0.1,0.3,0.3,0.4,0.3c1-2.4-1-4.9-3.4-4.7C34.4,395.1,34,395.4,33.6,395.8 M31.3,399.8
				c0-1.2,0.6-2.2,1.9-2.2c1.2,0,2,0.8,1.9,2.1c-0.1,1.5-1.5,2.4-2.7,2.8c2.1,0.4,3.9-1.4,3.8-3.3c-0.1-1.8-1.5-2.8-3.4-2.9
				c-1.3-0.1-2.6,0.6-2.7,1.7C30.1,398.9,30.5,399.7,31.3,399.8 M26.7,398.6C26.7,398.6,26.7,398.6,26.7,398.6
				c-1.4,1.7-0.2,4.5,1.6,4.8c-0.2-0.5,0-1-0.1-1.5c-0.1-0.2-0.4-0.4-0.6-0.6C27.2,400.6,26.9,399.7,26.7,398.6 M31.9,400
				c0.7,0.2,2.1-0.3,2-0.9c0-0.3-0.5-0.5-0.8-0.5C32.4,398.6,31.9,399.3,31.9,400 M29.2,402.6c0.1,1,0.3,1.7,0.9,2.2
				c1.5,1.4,4.5,0.5,4.7-1.6c0.5,0.4,1,0.7,1.8,0.7c1.2-0.1,2-1.3,1.7-2.5c-0.2-0.6-0.7-1.1-1.2-1.4c0,0,0,0,0,0
				c-0.3,2.3-2.2,3.7-5,3.6C30.9,403.5,29.9,403.1,29.2,402.6"/>
			<path class="st13" d="M35.1,406.1c-0.6,2.6,1.8,4.3,4.2,4.4c0.8,0,1.5-0.1,2.1-0.4c0.6-2.6-1.8-5.1-4.1-5.1
				c-0.8,0-1.3,0.3-1.7,0.7c0.5,0.8,1.2,1.4,1.9,2c0.7,0.6,1.5,1.1,2.4,1.4c0-0.1-0.2-0.3-0.3-0.4c-0.9-0.9-2-2-3.1-2.8
				c2.6-0.1,3.8,1.5,4.2,3.8C37.6,409.8,36.1,408.1,35.1,406.1 M25.7,410.8c1.5,0.4,3.2-0.1,4.4-0.9c0.8-0.6,1.7-1.6,1.9-2.6
				c0-0.2,0-0.5,0-0.7l-0.1,0c-1.2,1.7-2.6,3.3-5.3,3.6c0.7-1.2,1.9-2.4,2.8-3.6c-1.5,0.5-2.6,1.7-3.4,3c-0.1-2,1.1-3,2-4
				c-1.5,0.3-2.8,1.6-2.9,3.2C25,409.6,25.2,410.3,25.7,410.8"/>
			<path class="st12" d="M47.6,400.8c-1.7-0.1-2.6-0.9-3.2-2.2c-2.2,0-3.6-2-3.5-4.3c0.1-1.3,0.6-2.1,1.6-2.6
				c0.2-1.9,1.4-3.4,3.5-3.4c1.2,0,2,0.5,2.8,1c0.7-0.6,1.7-1,2.8-0.9c2,0.2,3.5,1.6,3.9,3.5c0.2,1.1-0.2,2.1-0.7,2.9
				c1,2-0.4,4.2-2.6,4.1c-0.4,0-0.8-0.2-1.1-0.3C50.6,400,49.5,400.7,47.6,400.8L47.6,400.8z M49.9,394.5c-0.1,0-0.1,0.1-0.2,0.2
				c-1,0.9-3.2,0.7-4.1-0.2c-0.9-1-0.7-2.6,0-3.5c0.6-0.6,1.4-0.9,2.4-0.9c0.1-0.2-0.2-0.2-0.3-0.3c-0.4-0.3-1-0.5-1.6-0.5
				c-1.6,0-2.6,1.3-2.7,2.7c-0.2,2.7,1.5,4.4,4,4.2C48.7,395.8,49.4,395.3,49.9,394.5 M49.4,390c2,0.2,3.1,1.4,3.5,3.3
				c0.3,0.1,0.6,0.2,0.9,0.4c0.2,0.1,0.3,0.3,0.4,0.3c1-2.4-1-4.9-3.4-4.7C50.3,389.4,49.8,389.6,49.4,390 M47.1,394.1
				c0-1.2,0.6-2.2,1.9-2.2c1.2,0,2,0.8,1.9,2.1c-0.1,1.5-1.5,2.4-2.7,2.8c2.1,0.4,3.9-1.4,3.8-3.3c-0.1-1.8-1.5-2.8-3.4-2.9
				c-1.3-0.1-2.6,0.6-2.7,1.7C45.9,393.2,46.4,393.9,47.1,394.1 M42.6,392.8C42.5,392.8,42.5,392.9,42.6,392.8
				c-1.4,1.7-0.2,4.5,1.6,4.8c-0.2-0.5,0-1-0.1-1.5c-0.1-0.2-0.4-0.4-0.6-0.6C43,394.9,42.7,393.9,42.6,392.8 M47.7,394.2
				c0.7,0.2,2.1-0.3,2-0.9c0-0.3-0.5-0.5-0.8-0.5C48.2,392.8,47.8,393.5,47.7,394.2 M45,396.8c0.1,1,0.3,1.7,0.9,2.2
				c1.5,1.4,4.5,0.5,4.7-1.6c0.5,0.4,1,0.7,1.8,0.7c1.2-0.1,2-1.3,1.7-2.5c-0.2-0.6-0.7-1.1-1.2-1.4c0,0,0,0,0,0
				c-0.3,2.3-2.2,3.7-5,3.6C46.7,397.8,45.8,397.4,45,396.8"/>
			<path class="st13" d="M51,400.3c-0.6,2.6,1.8,4.3,4.2,4.4c0.8,0,1.5-0.1,2.1-0.4c0.6-2.6-1.8-5.1-4.1-5.1c-0.8,0-1.3,0.3-1.7,0.7
				c0.5,0.8,1.2,1.4,1.9,2c0.7,0.6,1.5,1,2.4,1.4c0-0.1-0.2-0.3-0.3-0.4c-0.9-0.9-2-2-3.1-2.8c2.6-0.1,3.8,1.5,4.2,3.8
				C53.4,404,51.9,402.4,51,400.3 M41.5,405c1.5,0.4,3.2-0.1,4.4-0.9c0.8-0.6,1.7-1.6,1.9-2.6c0-0.2,0-0.5,0-0.7l-0.1,0
				c-1.2,1.7-2.6,3.3-5.3,3.6c0.8-1.2,1.9-2.4,2.8-3.6c-1.5,0.5-2.6,1.7-3.4,3c-0.1-2,1.1-3,2-4c-1.5,0.3-2.8,1.6-2.9,3.2
				C40.8,403.8,41.1,404.5,41.5,405"/>
			<path class="st12" d="M31.6,389.1c-1.7-0.1-2.6-0.9-3.2-2.2c-2.2,0-3.6-2-3.5-4.3c0.1-1.3,0.6-2.1,1.6-2.6
				c0.2-1.9,1.4-3.4,3.5-3.4c1.2,0,2,0.5,2.8,1c0.7-0.6,1.7-1,2.8-0.9c2,0.2,3.5,1.6,3.9,3.5c0.2,1.1-0.2,2.1-0.7,2.9
				c1,2-0.4,4.2-2.6,4.1c-0.4,0-0.8-0.2-1.1-0.3C34.5,388.3,33.4,389,31.6,389.1L31.6,389.1z M33.8,382.8c-0.1,0-0.1,0.1-0.2,0.2
				c-1,0.9-3.2,0.7-4.1-0.2c-0.9-1-0.7-2.6,0-3.5c0.6-0.6,1.4-0.9,2.4-0.9c0.1-0.2-0.2-0.2-0.3-0.3c-0.4-0.3-1-0.5-1.6-0.5
				c-1.6,0-2.6,1.3-2.7,2.7c-0.2,2.7,1.5,4.4,4,4.2C32.6,384.1,33.3,383.6,33.8,382.8 M33.4,378.3c2,0.2,3.1,1.4,3.5,3.3
				c0.3,0.1,0.6,0.2,0.9,0.4c0.2,0.1,0.3,0.3,0.4,0.3c1-2.4-1-4.9-3.4-4.7C34.2,377.7,33.7,377.9,33.4,378.3 M31,382.4
				c0-1.2,0.6-2.2,1.9-2.2c1.2,0,2,0.8,1.9,2.1c-0.1,1.5-1.5,2.4-2.7,2.8c2.1,0.4,3.9-1.4,3.8-3.3c-0.1-1.8-1.5-2.8-3.4-2.9
				c-1.3-0.1-2.6,0.6-2.7,1.7C29.8,381.5,30.3,382.2,31,382.4 M26.5,381.1C26.4,381.1,26.4,381.2,26.5,381.1
				c-1.4,1.7-0.2,4.5,1.6,4.8c-0.2-0.5,0-1-0.1-1.5c-0.1-0.2-0.4-0.4-0.6-0.6C27,383.2,26.6,382.3,26.5,381.1 M31.7,382.5
				c0.7,0.2,2.1-0.3,2-0.9c0-0.3-0.5-0.5-0.8-0.5C32.1,381.1,31.7,381.8,31.7,382.5 M28.9,385.1c0.1,1,0.3,1.7,0.9,2.2
				c1.5,1.4,4.5,0.5,4.7-1.6c0.5,0.4,1,0.7,1.8,0.7c1.2-0.1,2-1.3,1.7-2.5c-0.2-0.6-0.7-1.1-1.2-1.4c0,0,0,0,0,0
				c-0.3,2.3-2.2,3.7-5,3.6C30.6,386.1,29.7,385.7,28.9,385.1"/>
			<path class="st13" d="M34.9,388.6c-0.6,2.6,1.8,4.3,4.2,4.4c0.8,0,1.5-0.1,2.1-0.4c0.6-2.6-1.8-5.1-4.1-5.1
				c-0.8,0-1.3,0.3-1.7,0.7c0.5,0.8,1.2,1.4,1.9,2c0.7,0.6,1.5,1,2.4,1.4c0-0.1-0.2-0.3-0.3-0.4c-0.9-0.9-2-2-3.1-2.8
				c2.6-0.1,3.8,1.5,4.2,3.8C37.3,392.3,35.8,390.7,34.9,388.6 M25.4,393.3c1.5,0.4,3.2-0.1,4.4-0.9c0.8-0.6,1.7-1.6,1.9-2.6
				c0-0.2,0-0.5,0-0.7l-0.1,0c-1.2,1.7-2.6,3.3-5.3,3.6c0.8-1.2,1.9-2.4,2.8-3.6c-1.5,0.5-2.6,1.7-3.4,3c-0.1-2,1.1-3,2-4
				c-1.5,0.3-2.8,1.6-2.9,3.2C24.7,392.1,25,392.8,25.4,393.3"/>
			<path class="st12" d="M30.5,372.3c-1.7-0.1-2.6-0.9-3.2-2.2c-2.2,0-3.6-2-3.5-4.3c0.1-1.3,0.6-2.1,1.6-2.6
				c0.2-1.9,1.4-3.4,3.5-3.4c1.2,0,2,0.5,2.8,1c0.7-0.6,1.7-1,2.8-0.9c2,0.2,3.5,1.6,3.9,3.5c0.2,1.1-0.2,2.1-0.7,2.9
				c1,2-0.4,4.2-2.6,4.1c-0.4,0-0.8-0.2-1.1-0.3C33.5,371.6,32.4,372.3,30.5,372.3L30.5,372.3z M32.8,366c-0.1,0-0.1,0.1-0.2,0.2
				c-1,0.9-3.2,0.7-4.1-0.2c-0.9-1-0.7-2.6,0-3.5c0.6-0.6,1.4-0.9,2.4-0.9c0.1-0.2-0.2-0.2-0.3-0.3c-0.4-0.3-1-0.5-1.6-0.5
				c-1.6,0-2.6,1.3-2.7,2.7c-0.2,2.7,1.5,4.4,4,4.2C31.5,367.4,32.3,366.9,32.8,366 M32.3,361.6c2,0.2,3.1,1.4,3.5,3.3
				c0.3,0.1,0.6,0.2,0.9,0.4c0.2,0.1,0.3,0.3,0.4,0.3c1-2.4-1-4.9-3.4-4.7C33.1,361,32.7,361.2,32.3,361.6 M30,365.7
				c0-1.2,0.6-2.2,1.9-2.2c1.2,0,2,0.8,1.9,2.1c-0.1,1.5-1.5,2.4-2.7,2.8c2.1,0.4,3.9-1.4,3.8-3.3c-0.1-1.8-1.5-2.8-3.4-2.9
				c-1.3-0.1-2.6,0.6-2.7,1.7C28.8,364.7,29.3,365.5,30,365.7 M25.5,364.4C25.4,364.4,25.4,364.4,25.5,364.4
				c-1.4,1.7-0.2,4.5,1.6,4.8c-0.2-0.5,0-1-0.1-1.5c-0.1-0.2-0.4-0.4-0.6-0.6C25.9,366.4,25.6,365.5,25.5,364.4 M30.6,365.8
				c0.7,0.2,2.1-0.3,2-0.9c0-0.3-0.5-0.5-0.8-0.5C31.1,364.4,30.6,365.1,30.6,365.8 M27.9,368.4c0.1,1,0.3,1.7,0.9,2.2
				c1.5,1.4,4.5,0.5,4.7-1.6c0.5,0.4,1,0.7,1.8,0.7c1.2-0.1,2-1.3,1.7-2.5c-0.2-0.6-0.7-1.1-1.2-1.4c0,0,0,0,0,0
				c-0.3,2.3-2.2,3.7-5,3.6C29.6,369.4,28.7,368.9,27.9,368.4"/>
			<path class="st13" d="M33.8,371.9c-0.6,2.6,1.8,4.3,4.2,4.4c0.8,0,1.5-0.1,2.1-0.4c0.6-2.6-1.8-5.1-4.1-5.1
				c-0.8,0-1.3,0.3-1.7,0.7c0.5,0.8,1.2,1.4,1.9,2c0.7,0.6,1.5,1.1,2.4,1.4c0-0.1-0.2-0.3-0.3-0.4c-0.9-0.9-2-2-3.1-2.8
				c2.6-0.1,3.8,1.5,4.2,3.8C36.3,375.6,34.8,373.9,33.8,371.9 M24.4,376.6c1.5,0.4,3.2-0.1,4.4-0.9c0.8-0.6,1.7-1.6,1.9-2.6
				c0-0.2,0-0.5,0-0.7l-0.1,0c-1.2,1.7-2.6,3.3-5.3,3.6c0.8-1.2,1.9-2.4,2.8-3.6c-1.5,0.5-2.6,1.7-3.4,3c-0.1-2,1.1-3,2-4
				c-1.5,0.3-2.8,1.6-2.9,3.2C23.7,375.4,24,376.1,24.4,376.6"/>
			<path class="st12" d="M45.9,366.9c-1.7-0.1-2.6-0.9-3.2-2.2c-2.2,0-3.6-2-3.5-4.3c0.1-1.3,0.6-2.1,1.6-2.6
				c0.2-1.9,1.4-3.4,3.5-3.4c1.2,0,2,0.5,2.8,1c0.7-0.6,1.7-1,2.8-0.9c2,0.2,3.5,1.6,3.9,3.5c0.2,1.1-0.2,2.1-0.7,2.9
				c1,2-0.4,4.2-2.6,4.1c-0.4,0-0.8-0.2-1.1-0.3C48.8,366.1,47.8,366.9,45.9,366.9L45.9,366.9z M48.1,360.6c-0.1,0-0.1,0.1-0.2,0.2
				c-1,0.9-3.2,0.7-4.1-0.2c-0.9-1-0.7-2.6,0-3.5c0.6-0.6,1.3-0.9,2.4-0.9c0.1-0.2-0.2-0.2-0.3-0.3c-0.4-0.3-1-0.5-1.6-0.5
				c-1.6,0-2.6,1.3-2.7,2.7c-0.2,2.7,1.5,4.4,4,4.2C46.9,362,47.6,361.4,48.1,360.6 M47.7,356.1c2,0.2,3.1,1.4,3.5,3.3
				c0.3,0.1,0.6,0.2,0.9,0.4c0.2,0.1,0.3,0.3,0.4,0.3c1-2.4-1-4.9-3.4-4.7C48.5,355.5,48.1,355.7,47.7,356.1 M45.3,360.2
				c0-1.2,0.6-2.2,1.9-2.2c1.2,0,2,0.8,1.9,2.1c-0.1,1.5-1.5,2.4-2.7,2.8c2.1,0.4,3.9-1.4,3.8-3.3c-0.1-1.8-1.5-2.8-3.4-2.9
				c-1.3-0.1-2.6,0.6-2.7,1.7C44.1,359.3,44.6,360,45.3,360.2 M40.8,359C40.8,359,40.8,359,40.8,359c-1.4,1.7-0.2,4.5,1.6,4.8
				c-0.2-0.5,0-1-0.1-1.5c-0.1-0.2-0.4-0.4-0.6-0.6C41.3,361,40.9,360.1,40.8,359 M46,360.4c0.7,0.2,2.1-0.3,2-0.9
				c0-0.3-0.5-0.5-0.8-0.5C46.5,358.9,46,359.6,46,360.4 M43.3,363c0.1,1,0.3,1.7,0.9,2.2c1.5,1.4,4.5,0.5,4.7-1.6
				c0.5,0.4,1,0.7,1.8,0.7c1.2-0.1,2-1.3,1.7-2.5c-0.2-0.6-0.7-1.1-1.2-1.4c0,0,0,0,0,0c-0.3,2.3-2.2,3.7-5,3.6
				C45,363.9,44,363.5,43.3,363"/>
			<path class="st13" d="M49.2,366.4c-0.6,2.6,1.8,4.3,4.2,4.4c0.8,0,1.5-0.1,2.1-0.4c0.6-2.6-1.8-5.1-4.1-5.1
				c-0.8,0-1.3,0.3-1.7,0.7c0.5,0.8,1.2,1.4,1.9,2c0.7,0.6,1.5,1.1,2.4,1.4c0-0.1-0.2-0.3-0.3-0.4c-0.9-0.9-2-2-3.1-2.8
				c2.6-0.1,3.8,1.5,4.2,3.8C51.6,370.1,50.1,368.5,49.2,366.4 M39.7,371.1c1.5,0.4,3.2-0.1,4.4-0.9c0.8-0.6,1.7-1.6,1.9-2.6
				c0-0.2,0-0.5,0-0.7l-0.1,0c-1.2,1.7-2.6,3.3-5.3,3.6c0.7-1.2,1.9-2.4,2.8-3.6c-1.5,0.5-2.6,1.7-3.4,3c-0.1-2,1.1-3,2-4
				c-1.5,0.3-2.8,1.6-2.9,3.2C39.1,369.9,39.3,370.6,39.7,371.1"/>
			<path class="st14" d="M29.1,356.1c-1.7-0.1-2.6-0.9-3.2-2.2c-2.2,0-3.6-2-3.5-4.3c0.1-1.3,0.6-2.1,1.6-2.6
				c0.2-1.9,1.4-3.4,3.5-3.4c1.2,0,2,0.5,2.8,1c0.7-0.6,1.7-1,2.8-0.9c2,0.2,3.5,1.6,3.9,3.5c0.2,1.1-0.2,2.1-0.7,2.9
				c1,2-0.4,4.2-2.6,4.1c-0.4,0-0.8-0.2-1.1-0.3C32.1,355.3,31,356,29.1,356.1L29.1,356.1z M31.4,349.8c-0.1,0-0.1,0.1-0.2,0.2
				c-1,0.9-3.2,0.7-4.1-0.2c-0.9-1-0.7-2.6,0-3.5c0.6-0.6,1.4-0.9,2.4-0.9c0.1-0.2-0.2-0.2-0.3-0.3c-0.4-0.3-1-0.5-1.6-0.5
				c-1.6,0-2.6,1.3-2.7,2.7c-0.2,2.7,1.5,4.4,4,4.2C30.1,351.1,30.8,350.6,31.4,349.8 M30.9,345.3c2,0.2,3.1,1.4,3.5,3.3
				c0.3,0.1,0.6,0.2,0.9,0.4c0.2,0.1,0.3,0.3,0.4,0.3c1-2.4-1-4.9-3.4-4.7C31.7,344.7,31.3,344.9,30.9,345.3 M28.6,349.4
				c0-1.2,0.6-2.2,1.9-2.2c1.2,0,2,0.8,1.9,2.1c-0.1,1.5-1.5,2.4-2.7,2.8c2.1,0.4,3.9-1.4,3.8-3.3c-0.1-1.8-1.5-2.8-3.4-2.9
				c-1.3-0.1-2.6,0.6-2.7,1.7C27.4,348.4,27.8,349.2,28.6,349.4 M24,348.1C24,348.1,24,348.2,24,348.1c-1.4,1.7-0.2,4.5,1.6,4.8
				c-0.2-0.5,0-1-0.1-1.5c-0.1-0.2-0.4-0.4-0.6-0.6C24.5,350.1,24.2,349.2,24,348.1 M29.2,349.5c0.7,0.2,2.1-0.3,2-0.9
				c0-0.3-0.5-0.5-0.8-0.5C29.7,348.1,29.2,348.8,29.2,349.5 M26.5,352.1c0.1,1,0.3,1.7,0.9,2.2c1.5,1.4,4.5,0.5,4.7-1.6
				c0.5,0.4,1,0.7,1.8,0.7c1.2-0.1,2-1.3,1.7-2.5c-0.2-0.6-0.7-1.1-1.2-1.4c0,0,0,0,0,0c-0.3,2.3-2.2,3.7-5,3.6
				C28.2,353.1,27.2,352.6,26.5,352.1"/>
			<path class="st13" d="M32.4,355.6c-0.6,2.6,1.8,4.3,4.2,4.4c0.8,0,1.5-0.1,2.1-0.4c0.6-2.6-1.8-5.1-4.1-5.1
				c-0.8,0-1.3,0.3-1.7,0.7c0.5,0.8,1.2,1.4,1.9,2c0.7,0.6,1.5,1,2.4,1.4c0-0.1-0.2-0.3-0.3-0.4c-0.9-0.9-2-2-3.1-2.8
				c2.6-0.1,3.8,1.5,4.2,3.8C34.9,359.3,33.4,357.7,32.4,355.6 M23,360.3c1.5,0.4,3.2-0.1,4.4-0.9c0.8-0.6,1.7-1.6,1.9-2.6
				c0-0.2,0-0.5,0-0.7l-0.1,0c-1.2,1.7-2.6,3.3-5.3,3.6c0.8-1.2,1.9-2.4,2.8-3.6c-1.5,0.5-2.6,1.7-3.4,3c-0.1-2,1.1-3,2-4
				c-1.5,0.3-2.8,1.6-2.9,3.2C22.3,359.1,22.5,359.8,23,360.3"/>
			<path class="st12" d="M46.5,384.2c-1.7-0.1-2.6-0.9-3.2-2.2c-2.2,0-3.6-2-3.5-4.3c0.1-1.3,0.6-2.1,1.6-2.6
				c0.2-1.9,1.4-3.4,3.5-3.4c1.2,0,2,0.5,2.8,1c0.7-0.6,1.7-1,2.8-0.9c2,0.2,3.5,1.6,3.9,3.5c0.2,1.1-0.2,2.1-0.7,2.9
				c1,2-0.4,4.2-2.6,4.1c-0.4,0-0.8-0.2-1.1-0.3C49.5,383.4,48.4,384.1,46.5,384.2L46.5,384.2z M48.8,377.9c-0.1,0-0.1,0.1-0.2,0.2
				c-1,0.9-3.2,0.7-4.1-0.2c-0.9-1-0.7-2.6,0-3.5c0.6-0.6,1.3-0.9,2.4-0.9c0.1-0.2-0.2-0.2-0.3-0.3c-0.4-0.3-1-0.5-1.6-0.5
				c-1.6,0-2.6,1.3-2.7,2.7c-0.2,2.7,1.5,4.4,4,4.2C47.5,379.2,48.2,378.7,48.8,377.9 M48.3,373.4c2,0.2,3.1,1.4,3.5,3.3
				c0.3,0.1,0.6,0.2,0.9,0.4c0.2,0.1,0.3,0.3,0.4,0.3c1-2.4-1-4.9-3.4-4.7C49.1,372.8,48.7,373,48.3,373.4 M46,377.5
				c0-1.2,0.6-2.2,1.9-2.2c1.2,0,2,0.8,1.9,2.1c-0.1,1.5-1.5,2.4-2.7,2.8c2.1,0.4,3.9-1.4,3.8-3.3c-0.1-1.8-1.5-2.8-3.4-2.9
				c-1.3-0.1-2.6,0.6-2.7,1.7C44.8,376.6,45.2,377.3,46,377.5 M41.4,376.2C41.4,376.2,41.4,376.3,41.4,376.2
				c-1.4,1.7-0.2,4.5,1.6,4.8c-0.2-0.5,0-1-0.1-1.5c-0.1-0.2-0.4-0.4-0.6-0.6C41.9,378.2,41.6,377.3,41.4,376.2 M46.6,377.6
				c0.7,0.2,2.1-0.3,2-0.9c0-0.3-0.5-0.5-0.8-0.5C47.1,376.2,46.6,376.9,46.6,377.6 M43.9,380.2c0.1,1,0.3,1.7,0.9,2.2
				c1.5,1.4,4.5,0.5,4.7-1.6c0.5,0.4,1,0.7,1.8,0.7c1.2-0.1,2-1.3,1.7-2.5c-0.2-0.6-0.7-1.1-1.2-1.4c0,0,0,0,0,0
				c-0.3,2.3-2.2,3.7-5,3.6C45.6,381.2,44.6,380.7,43.9,380.2"/>
			<path class="st13" d="M49.8,383.7c-0.6,2.6,1.8,4.3,4.2,4.4c0.8,0,1.5-0.1,2.1-0.4c0.6-2.6-1.8-5.1-4.1-5.1
				c-0.8,0-1.3,0.3-1.7,0.7c0.5,0.8,1.2,1.4,1.9,2c0.7,0.6,1.5,1,2.4,1.4c0-0.1-0.2-0.3-0.3-0.4c-0.9-0.9-2-2-3.1-2.8
				c2.6-0.1,3.8,1.5,4.2,3.8C52.2,387.4,50.8,385.8,49.8,383.7 M40.3,388.4c1.5,0.4,3.2-0.1,4.4-0.9c0.8-0.6,1.7-1.6,1.9-2.6
				c0-0.2,0-0.5,0-0.7l-0.1,0c-1.2,1.7-2.6,3.3-5.3,3.6c0.7-1.2,1.9-2.4,2.8-3.6c-1.5,0.5-2.6,1.7-3.4,3c-0.1-2,1.1-3,2-4
				c-1.5,0.3-2.8,1.6-2.9,3.2C39.7,387.2,39.9,387.9,40.3,388.4"/>
			<path class="st12" d="M62.8,395.4c-1.7-0.1-2.6-0.9-3.2-2.2c-2.2,0-3.6-2-3.5-4.3c0.1-1.3,0.6-2.1,1.6-2.6
				c0.2-1.9,1.4-3.4,3.5-3.4c1.2,0,2,0.5,2.8,1c0.7-0.6,1.7-1,2.8-0.9c2,0.2,3.5,1.6,3.9,3.5c0.2,1.1-0.2,2.1-0.7,2.9
				c1,2-0.4,4.2-2.6,4.1c-0.4,0-0.8-0.2-1.1-0.3C65.8,394.7,64.7,395.4,62.8,395.4L62.8,395.4z M65.1,389.1c-0.1,0-0.1,0.1-0.2,0.2
				c-1,0.9-3.2,0.7-4.1-0.2c-0.9-1-0.7-2.6,0-3.5c0.6-0.6,1.3-0.9,2.4-0.9c0.1-0.2-0.2-0.2-0.3-0.3c-0.4-0.3-1-0.5-1.6-0.5
				c-1.6,0-2.6,1.3-2.7,2.7c-0.2,2.7,1.5,4.4,4,4.2C63.8,390.5,64.6,390,65.1,389.1 M64.6,384.7c2,0.2,3.1,1.4,3.5,3.3
				c0.3,0.1,0.6,0.2,0.9,0.4c0.2,0.1,0.3,0.3,0.4,0.3c1-2.4-1-4.9-3.4-4.7C65.4,384.1,65,384.3,64.6,384.7 M62.3,388.8
				c0-1.2,0.6-2.2,1.9-2.2c1.2,0,2,0.8,1.9,2.1c-0.1,1.5-1.5,2.4-2.7,2.8c2.1,0.4,3.9-1.4,3.8-3.3c-0.1-1.8-1.5-2.8-3.4-2.9
				c-1.3-0.1-2.6,0.6-2.7,1.7C61.1,387.8,61.6,388.6,62.3,388.8 M57.8,387.5C57.7,387.5,57.7,387.5,57.8,387.5
				c-1.4,1.7-0.2,4.5,1.6,4.8c-0.2-0.5,0-1-0.1-1.5c-0.1-0.2-0.4-0.4-0.6-0.6C58.2,389.5,57.9,388.6,57.8,387.5 M62.9,388.9
				c0.7,0.2,2.1-0.3,2-0.9c0-0.3-0.5-0.5-0.8-0.5C63.4,387.5,62.9,388.2,62.9,388.9 M60.2,391.5c0.1,1,0.3,1.7,0.9,2.2
				c1.5,1.4,4.5,0.5,4.7-1.6c0.5,0.4,1,0.7,1.8,0.7c1.2-0.1,2-1.3,1.7-2.5c-0.2-0.6-0.7-1.1-1.2-1.4c0,0,0,0,0,0
				c-0.3,2.3-2.2,3.7-5,3.6C61.9,392.5,60.9,392,60.2,391.5"/>
			<path class="st13" d="M66.1,395c-0.6,2.6,1.8,4.3,4.2,4.4c0.8,0,1.5-0.1,2.1-0.4c0.6-2.6-1.8-5.1-4.1-5.1c-0.8,0-1.3,0.3-1.7,0.7
				c0.5,0.8,1.2,1.4,1.9,2c0.7,0.6,1.5,1.1,2.4,1.4c0-0.1-0.2-0.3-0.3-0.4c-0.9-0.9-2-2-3.1-2.8c2.6-0.1,3.8,1.5,4.2,3.8
				C68.6,398.7,67.1,397,66.1,395 M56.7,399.7c1.5,0.4,3.2-0.1,4.4-0.9c0.8-0.6,1.7-1.6,1.9-2.6c0-0.2,0-0.5,0-0.7l-0.1,0
				c-1.2,1.7-2.6,3.3-5.3,3.6c0.7-1.2,1.9-2.4,2.8-3.6c-1.5,0.5-2.6,1.7-3.4,3c-0.1-2,1.1-3,2-4c-1.5,0.3-2.8,1.6-2.9,3.2
				C56,398.5,56.3,399.2,56.7,399.7"/>
			<path class="st12" d="M65.3,412.2c-1.7-0.1-2.6-0.9-3.2-2.2c-2.2,0-3.6-2-3.5-4.3c0.1-1.3,0.6-2.1,1.6-2.6
				c0.2-1.9,1.4-3.4,3.5-3.4c1.2,0,2,0.5,2.8,1c0.7-0.6,1.7-1,2.8-0.9c2,0.2,3.5,1.6,3.9,3.5c0.2,1.1-0.2,2.1-0.7,2.9
				c1,2-0.4,4.2-2.6,4.1c-0.4,0-0.8-0.2-1.1-0.3C68.2,411.5,67.1,412.2,65.3,412.2L65.3,412.2z M67.5,405.9c-0.1,0-0.1,0.1-0.2,0.2
				c-1,0.9-3.2,0.7-4.1-0.2c-0.9-1-0.7-2.6,0-3.5c0.6-0.6,1.4-0.9,2.4-0.9c0.1-0.2-0.2-0.2-0.3-0.3c-0.4-0.3-1-0.5-1.6-0.5
				c-1.6,0-2.6,1.3-2.7,2.7c-0.2,2.7,1.5,4.4,4,4.2C66.3,407.3,67,406.8,67.5,405.9 M67.1,401.5c2,0.2,3.1,1.4,3.5,3.3
				c0.3,0.1,0.6,0.2,0.9,0.4c0.2,0.1,0.3,0.3,0.4,0.3c1-2.4-1-4.9-3.4-4.7C67.9,400.9,67.5,401.1,67.1,401.5 M64.7,405.5
				c0-1.2,0.6-2.2,1.9-2.2c1.2,0,2,0.8,1.9,2.1c-0.1,1.5-1.5,2.4-2.7,2.8c2.1,0.4,3.9-1.4,3.8-3.3c-0.1-1.8-1.5-2.8-3.4-2.9
				c-1.3-0.1-2.6,0.6-2.7,1.7C63.5,404.6,64,405.4,64.7,405.5 M60.2,404.3C60.2,404.3,60.2,404.3,60.2,404.3
				c-1.4,1.7-0.2,4.5,1.6,4.8c-0.2-0.5,0-1-0.1-1.5c-0.1-0.2-0.4-0.4-0.6-0.6C60.7,406.3,60.3,405.4,60.2,404.3 M65.4,405.7
				c0.7,0.2,2.1-0.3,2-0.9c0-0.3-0.5-0.5-0.8-0.5C65.9,404.3,65.4,405,65.4,405.7 M62.7,408.3c0.1,1,0.3,1.7,0.9,2.2
				c1.5,1.4,4.5,0.5,4.7-1.6c0.5,0.4,1,0.7,1.8,0.7c1.2-0.1,2-1.3,1.7-2.5c-0.2-0.6-0.7-1.1-1.2-1.4c0,0,0,0,0,0
				c-0.3,2.3-2.2,3.7-5,3.6C64.4,409.3,63.4,408.8,62.7,408.3"/>
			<path class="st13" d="M68.6,411.8c-0.6,2.6,1.8,4.3,4.2,4.4c0.8,0,1.5-0.1,2.1-0.4c0.6-2.6-1.8-5.1-4.1-5.1
				c-0.8,0-1.3,0.3-1.7,0.7c0.5,0.8,1.2,1.4,1.9,2c0.7,0.6,1.5,1.1,2.4,1.4c0-0.1-0.2-0.3-0.3-0.4c-0.9-0.9-2-2-3.1-2.8
				c2.6-0.1,3.8,1.5,4.2,3.8C71,415.5,69.5,413.8,68.6,411.8 M59.1,416.5c1.5,0.4,3.2-0.1,4.4-0.9c0.8-0.6,1.7-1.6,1.9-2.6
				c0-0.2,0-0.5,0-0.7l-0.1,0c-1.2,1.7-2.6,3.3-5.3,3.6c0.8-1.2,1.9-2.4,2.8-3.6c-1.5,0.5-2.6,1.7-3.4,3c-0.1-2,1.1-3,2-4
				c-1.5,0.3-2.8,1.6-2.9,3.2C58.5,415.3,58.7,416,59.1,416.5"/>
		</g>
	</g>
</g>
<g>
	<defs>
		<path id="SVGID_8_" d="M79.2,448.3c0.1,0.3,0.2,0.5,0.2,0.6v-1.8C79.1,447.4,79.1,448,79.2,448.3 M80.9,448.9
			c0.1-0.1,0.2-0.3,0.2-0.6c0.1-0.3,0-0.9-0.2-1.2V448.9z M74.3,410l-5.7,15.4c0.9,0.3,2.9,1.4,5.6,5.5c1.4,2.2,2.8,5.8,4.2,10.9
			c0.4,1.3,0.7,2.8,1,4.2v-19.7c-0.9-0.3-3.2-1.4-3.2-4.3c0-2.6,1.9-3.6,3.2-3.8V410H74.3z M80.9,410v8.2c1.3,0.2,3.2,1.2,3.2,3.8
			c0,2.9-2.3,4-3.2,4.3V446c0.3-1.5,0.7-2.9,1-4.2c1.3-5.1,2.7-8.7,4.2-10.9c2.7-4.1,4.7-5.2,5.6-5.5L86,410H80.9z"/>
	</defs>
	<clipPath id="SVGID_9_">
		<use xlink:href="#SVGID_8_"  style="overflow:visible;"/>
	</clipPath>
	
		<linearGradient id="SVGID_10_" gradientUnits="userSpaceOnUse" x1="5.3197" y1="457.0721" x2="6.2766" y2="457.0721" gradientTransform="matrix(24.2178 0 0 -24.2178 -60.2521 11498.7549)">
		<stop  offset="0" style="stop-color:#76787A"/>
		<stop  offset="0.3846" style="stop-color:#FFFFFF"/>
		<stop  offset="0.5385" style="stop-color:#E3E4E5"/>
		<stop  offset="0.7088" style="stop-color:#D2D3D5"/>
		<stop  offset="1" style="stop-color:#231F20"/>
	</linearGradient>
	<rect x="68.6" y="410" class="st15" width="23.2" height="38.9"/>
</g>
<g>
	<defs>
		<rect id="SVGID_11_" x="15.1" y="326.9" width="450" height="127.3"/>
	</defs>
	<clipPath id="SVGID_12_">
		<use xlink:href="#SVGID_11_"  style="overflow:visible;"/>
	</clipPath>
	<path class="st16" d="M86.3,409.6l6,16.1c0,0-2.2,0.1-5.8,5.5c-1.7,2.5-3.1,6.9-4.1,10.8c-0.5,1.8-0.9,3.5-1.2,4.8
		c0.4,0.4,0.5,1.2,0.4,1.6c-0.2,1.2-0.9,1.3-1.1,1.3c0,0,0,0,0,0V426c0,0,3.2-0.8,3.2-4c0-3.2-3.2-3.4-3.2-3.4v-9H86.3 M79.8,409.6
		v9c0,0-3.2,0.2-3.2,3.4c0,3.2,3.2,4,3.2,4v23.6c0,0,0,0,0,0c-0.1,0-0.8-0.1-1.1-1.3c-0.1-0.4,0-1.2,0.4-1.6
		c-0.3-1.4-0.7-3.1-1.2-4.8c-1-3.9-2.4-8.2-4.1-10.8c-3.6-5.4-5.8-5.5-5.8-5.5l6-16.1H79.8 M85.7,410.5h-4.4v7.4
		c1.4,0.4,3.2,1.5,3.2,4.1c0,2.6-1.8,4-3.2,4.6v15.8c0.1-0.2,0.1-0.5,0.2-0.7c1.4-5.1,2.8-8.8,4.2-11c2.4-3.6,4.3-5,5.4-5.5
		L85.7,410.5z M79,410.5h-4.4l-5.5,14.7c1.1,0.5,3,1.9,5.4,5.5c1.5,2.2,2.9,5.9,4.2,11c0.1,0.2,0.1,0.5,0.2,0.7v-15.8
		c-1.4-0.6-3.2-2-3.2-4.6c0-2.6,1.8-3.8,3.2-4.1V410.5z"/>
	<path class="st16" d="M80.5,441.9v7.7c0,0,0.8,0.1,1.1-1.3c0.1-0.4,0-1.2-0.4-1.6c0.3-1.4,0.7-3.1,1.2-4.8L80.5,441.9z M78,441.9
		c0.5,1.8,0.9,3.5,1.2,4.8c-0.4,0.4-0.5,1.2-0.4,1.6c0.3,1.3,1.1,1.3,1.1,1.3v-7.7L78,441.9z"/>
</g>
<g>
	<defs>
		<path id="SVGID_13_" d="M69.9,401.1c-1.6,0-2.8,1.3-2.8,2.8v1.5c0,1.6,1.3,2.8,2.8,2.8h20c1.6,0,2.8-1.3,2.8-2.8v-1.5
			c0-1.6-1.3-2.8-2.8-2.8H69.9z"/>
	</defs>
	<clipPath id="SVGID_14_">
		<use xlink:href="#SVGID_13_"  style="overflow:visible;"/>
	</clipPath>
	
		<linearGradient id="SVGID_15_" gradientUnits="userSpaceOnUse" x1="5.2915" y1="457.0234" x2="6.2483" y2="457.0234" gradientTransform="matrix(26.8022 0 0 -26.8022 -74.7751 12653.9141)">
		<stop  offset="0" style="stop-color:#76787A"/>
		<stop  offset="0.4835" style="stop-color:#FFFFFF"/>
		<stop  offset="1" style="stop-color:#231F20"/>
	</linearGradient>
	<rect x="67" y="401.1" class="st17" width="25.6" height="7.1"/>
</g>
<path class="st18" d="M66.5,405.4v-1.5c0-1.9,1.5-3.4,3.4-3.4h20c1.9,0,3.4,1.5,3.4,3.4v1.5c0,1.9-1.5,3.4-3.4,3.4l-20,0
	C68,408.8,66.5,407.3,66.5,405.4 M69.9,401.7c-1.2,0-2.3,1-2.3,2.3v1.5c0,1.2,1,2.3,2.3,2.3h20c1.2,0,2.3-1,2.3-2.3v-1.5
	c0-1.2-1-2.3-2.3-2.3H69.9z"/>
<path class="st18" d="M80.1,333.1c8.5,0,18.3,2.1,28.7,8.4L80.2,385l-28.7-43.6C51.6,341.5,63.2,333.1,80.1,333.1 M80.2,334.8
	L80.2,334.8c-8.4,0-15.5,2.2-19.9,4c-2.9,1.2-5,2.4-6.3,3.2l26.3,40l26.2-39.9C98,337.3,89.1,334.8,80.2,334.8"/>
<defs>
	<filter id="Adobe_OpacityMaskFilter_1_" filterUnits="userSpaceOnUse" x="70.7" y="411.4" width="5.2" height="18.4">
		<feFlood  style="flood-color:white;flood-opacity:1" result="back"/>
		<feBlend  in="SourceGraphic" in2="back" mode="normal"/>
	</filter>
</defs>
<mask maskUnits="userSpaceOnUse" x="70.7" y="411.4" width="5.2" height="18.4" id="SVGID_16_">
	<g class="st19">
		<g class="st8">
			<g>
				<defs>
					<path id="SVGID_17_" d="M75.9,411.4h-0.6l-4.7,13.1c0,0,2.8,2.1,4.6,5.2C75.3,429.8,72.9,424.1,75.9,411.4"/>
				</defs>
				<clipPath id="SVGID_18_">
					<use xlink:href="#SVGID_17_"  style="overflow:visible;"/>
				</clipPath>
				
					<linearGradient id="SVGID_19_" gradientUnits="userSpaceOnUse" x1="5.0195" y1="457.3105" x2="5.9764" y2="457.3105" gradientTransform="matrix(3.7553 22.9002 22.9002 -3.7553 -10420.043 2010.7144)">
					<stop  offset="0" style="stop-color:#FFFFFF"/>
					<stop  offset="0.3187" style="stop-color:#FFFFFF"/>
					<stop  offset="1" style="stop-color:#231F20"/>
				</linearGradient>
				<polygon class="st20" points="75.8,410.6 78.9,429.3 70.8,430.6 67.8,411.9 				"/>
			</g>
		</g>
	</g>
</mask>
<g class="st21">
	<g>
		<defs>
			<rect id="SVGID_20_" x="70.7" y="411.4" width="5.2" height="18.4"/>
		</defs>
		<clipPath id="SVGID_21_">
			<use xlink:href="#SVGID_20_"  style="overflow:visible;"/>
		</clipPath>
		<path class="st22" d="M75.9,411.4h-0.6l-4.7,13.1c0,0,2.8,2.1,4.6,5.2C75.3,429.8,72.9,424.1,75.9,411.4"/>
	</g>
</g>
<defs>
	<filter id="Adobe_OpacityMaskFilter_2_" filterUnits="userSpaceOnUse" x="68.4" y="402.3" width="14.8" height="4.8">
		<feColorMatrix  type="matrix" values="1 0 0 0 0  0 1 0 0 0  0 0 1 0 0  0 0 0 1 0"/>
	</filter>
</defs>
<mask maskUnits="userSpaceOnUse" x="68.4" y="402.3" width="14.8" height="4.8" id="SVGID_22_">
	<g class="st23">
		<g>
			<defs>
				<rect id="SVGID_23_" x="68.4" y="402.3" width="14.8" height="4.8"/>
			</defs>
			<clipPath id="SVGID_24_">
				<use xlink:href="#SVGID_23_"  style="overflow:visible;"/>
			</clipPath>
			<rect x="67.3" y="401.9" class="st24" width="15.9" height="5.2"/>
			<g class="st8">
				<g>
					<defs>
						<path id="SVGID_25_" d="M68.9,407.1c0,0-1.6-2.7,0.7-4.4c1.1-0.8,13.6-0.2,13.6-0.2s-6.2,0.9-10.6,2.2
							C70.2,405.3,68.9,407.1,68.9,407.1"/>
					</defs>
					<clipPath id="SVGID_26_" class="st24">
						<use xlink:href="#SVGID_25_"  style="overflow:visible;"/>
					</clipPath>
					
						<linearGradient id="SVGID_27_" gradientUnits="userSpaceOnUse" x1="4.3208" y1="456.9894" x2="5.2777" y2="456.9894" gradientTransform="matrix(-10.7265 0.6265 0.6265 10.7265 -160.9752 -4500.3486)">
						<stop  offset="0" style="stop-color:#76787A"/>
						<stop  offset="0.4835" style="stop-color:#FFFFFF"/>
						<stop  offset="1" style="stop-color:#231F20"/>
					</linearGradient>
					<polygon class="st25" points="83.5,407 67.4,408 67,401.9 83.1,401 					"/>
				</g>
			</g>
		</g>
	</g>
</mask>
<g class="st26">
	<g>
		<defs>
			<rect id="SVGID_28_" x="68.4" y="402.3" width="14.8" height="4.8"/>
		</defs>
		<clipPath id="SVGID_29_">
			<use xlink:href="#SVGID_28_"  style="overflow:visible;"/>
		</clipPath>
		<path class="st27" d="M68.9,407.1c0,0-1.6-2.7,0.7-4.4c1.1-0.8,13.6-0.2,13.6-0.2s-6.2,0.9-10.6,2.2
			C70.2,405.3,68.9,407.1,68.9,407.1"/>
	</g>
</g>
<path d="M133,437.7h-1.6c-0.8-1.3-1.5-2.6-1.9-3.9c-0.4-1.4-0.7-2.7-0.7-3.9c0-1.6,0.3-3.1,0.8-4.5c0.5-1.2,1.1-2.3,1.8-3.4h1.6
	c-0.7,1.7-1.3,3.1-1.5,4.2c-0.3,1.2-0.4,2.4-0.4,3.7c0,0.9,0.1,1.8,0.2,2.7c0.2,0.9,0.4,1.8,0.7,2.7
	C132.2,435.9,132.5,436.7,133,437.7"/>
<path d="M144.9,434.2h-2.6l-1-2.7h-4.8l-1,2.7h-2.6l4.7-12h2.6L144.9,434.2z M140.5,429.5l-1.7-4.4l-1.6,4.4H140.5z"/>
<path d="M154.6,434.2v-1.3c-0.3,0.5-0.7,0.8-1.2,1.1c-0.5,0.3-1.1,0.4-1.6,0.4c-0.6,0-1.1-0.1-1.6-0.4c-0.5-0.3-0.8-0.6-1-1.1
	c-0.2-0.5-0.3-1.1-0.3-1.9v-5.5h2.3v4c0,1.2,0,2,0.1,2.2c0.1,0.3,0.2,0.5,0.5,0.7c0.2,0.2,0.5,0.2,0.8,0.2c0.4,0,0.7-0.1,1.1-0.3
	c0.3-0.2,0.5-0.5,0.6-0.8c0.1-0.3,0.2-1.1,0.2-2.3v-3.7h2.3v8.7H154.6z"/>
<path d="M166.3,434.2H164v-4.4c0-0.9,0-1.5-0.1-1.8c-0.1-0.3-0.3-0.5-0.5-0.6c-0.2-0.2-0.5-0.2-0.8-0.2c-0.4,0-0.8,0.1-1.1,0.3
	c-0.3,0.2-0.5,0.5-0.6,0.9c-0.1,0.4-0.2,1-0.2,2v3.9h-2.3v-8.7h2.1v1.3c0.8-1,1.7-1.5,2.9-1.5c0.5,0,1,0.1,1.4,0.3
	c0.4,0.2,0.7,0.4,1,0.7c0.2,0.3,0.4,0.6,0.4,1c0.1,0.4,0.1,0.9,0.1,1.5V434.2z"/>
<path d="M168,422.2h2.3v2.1H168V422.2z M168,425.5h2.3v8.7H168V425.5z"/>
<path d="M176,425.5v1.8h-1.6v3.5c0,0.7,0,1.1,0,1.2c0,0.1,0.1,0.2,0.2,0.3c0.1,0.1,0.2,0.1,0.4,0.1c0.2,0,0.5-0.1,0.9-0.2l0.2,1.8
	c-0.5,0.2-1.1,0.3-1.8,0.3c-0.4,0-0.8-0.1-1.1-0.2c-0.3-0.1-0.6-0.3-0.7-0.5c-0.2-0.2-0.3-0.5-0.3-0.9c0-0.3-0.1-0.8-0.1-1.6v-3.8
	H171v-1.8h1.1v-1.7l2.3-1.3v3.1H176z"/>
<path d="M180.3,429.7c0-0.8,0.2-1.5,0.6-2.2c0.4-0.7,0.9-1.3,1.6-1.6c0.7-0.4,1.5-0.6,2.3-0.6c1.3,0,2.4,0.4,3.2,1.3
	c0.8,0.9,1.3,1.9,1.3,3.2c0,1.3-0.4,2.4-1.3,3.3c-0.8,0.9-1.9,1.3-3.2,1.3c-0.8,0-1.6-0.2-2.3-0.5c-0.7-0.4-1.3-0.9-1.6-1.6
	C180.5,431.6,180.3,430.7,180.3,429.7 M182.7,429.9c0,0.9,0.2,1.5,0.6,2c0.4,0.5,0.9,0.7,1.5,0.7s1.1-0.2,1.5-0.7
	c0.4-0.5,0.6-1.1,0.6-2c0-0.9-0.2-1.5-0.6-2s-0.9-0.7-1.5-0.7s-1.1,0.2-1.5,0.7C182.9,428.3,182.7,429,182.7,429.9"/>
<path d="M189.4,425.5h1.3v-0.7c0-0.7,0.1-1.3,0.2-1.6c0.2-0.4,0.4-0.7,0.9-0.9c0.4-0.2,0.9-0.3,1.6-0.3c0.7,0,1.3,0.1,1.9,0.3
	l-0.3,1.6c-0.4-0.1-0.7-0.1-1.1-0.1c-0.3,0-0.6,0.1-0.7,0.2c-0.1,0.2-0.2,0.5-0.2,0.9v0.6h1.7v1.8H193v6.9h-2.3v-6.9h-1.3V425.5z"/>
<path d="M198.7,430.3l2.4-0.2c0.1,0.8,0.4,1.4,0.9,1.7c0.4,0.4,1,0.6,1.8,0.6c0.8,0,1.4-0.2,1.8-0.5c0.4-0.3,0.6-0.7,0.6-1.2
	c0-0.3-0.1-0.5-0.2-0.7c-0.2-0.2-0.5-0.4-0.9-0.5c-0.3-0.1-0.9-0.3-1.9-0.5c-1.3-0.3-2.2-0.7-2.7-1.2c-0.7-0.7-1.1-1.5-1.1-2.4
	c0-0.6,0.2-1.2,0.5-1.7c0.3-0.5,0.8-0.9,1.5-1.2c0.7-0.3,1.4-0.4,2.4-0.4c1.5,0,2.6,0.3,3.4,1c0.8,0.7,1.2,1.5,1.2,2.6l-2.4,0.1
	c-0.1-0.6-0.3-1.1-0.7-1.3c-0.3-0.3-0.9-0.4-1.5-0.4c-0.7,0-1.3,0.1-1.7,0.4c-0.3,0.2-0.4,0.4-0.4,0.7c0,0.3,0.1,0.5,0.4,0.7
	c0.3,0.3,1,0.5,2.2,0.8c1.2,0.3,2,0.6,2.6,0.9c0.6,0.3,1,0.7,1.3,1.2c0.3,0.5,0.5,1.2,0.5,1.9c0,0.7-0.2,1.3-0.6,1.9
	c-0.4,0.6-0.9,1-1.6,1.3c-0.7,0.3-1.6,0.4-2.6,0.4c-1.5,0-2.7-0.4-3.5-1.1C199.4,432.7,198.9,431.7,198.7,430.3"/>
<path d="M209.8,422.2h2.3v2.1h-2.3V422.2z M209.8,425.5h2.3v8.7h-2.3V425.5z"/>
<path d="M213,431.7l2.3-0.4c0.1,0.4,0.3,0.8,0.6,1c0.3,0.2,0.7,0.3,1.3,0.3c0.6,0,1-0.1,1.3-0.3c0.2-0.2,0.3-0.4,0.3-0.6
	c0-0.2-0.1-0.3-0.2-0.4c-0.1-0.1-0.4-0.2-0.8-0.3c-1.9-0.4-3-0.8-3.5-1.1c-0.7-0.5-1-1.1-1-2c0-0.8,0.3-1.4,0.9-1.9
	c0.6-0.5,1.5-0.8,2.8-0.8c1.2,0,2.1,0.2,2.7,0.6c0.6,0.4,1,1,1.2,1.7l-2.2,0.4c-0.1-0.3-0.3-0.6-0.5-0.8c-0.3-0.2-0.6-0.3-1.1-0.3
	c-0.6,0-1,0.1-1.3,0.3c-0.2,0.1-0.3,0.3-0.3,0.5c0,0.2,0.1,0.3,0.2,0.4c0.2,0.2,0.9,0.4,2.1,0.6c1.2,0.3,2.1,0.6,2.6,1
	c0.5,0.4,0.7,1,0.7,1.7c0,0.8-0.3,1.5-1,2.1c-0.7,0.6-1.6,0.9-3,0.9c-1.2,0-2.1-0.2-2.8-0.7C213.7,433.2,213.2,432.6,213,431.7"/>
<path d="M226.4,425.5v1.8h-1.6v3.5c0,0.7,0,1.1,0,1.2c0,0.1,0.1,0.2,0.2,0.3c0.1,0.1,0.2,0.1,0.4,0.1c0.2,0,0.5-0.1,0.9-0.2l0.2,1.8
	c-0.5,0.2-1.1,0.3-1.8,0.3c-0.4,0-0.8-0.1-1.1-0.2c-0.3-0.1-0.6-0.3-0.7-0.5c-0.2-0.2-0.3-0.5-0.3-0.9c0-0.3-0.1-0.8-0.1-1.6v-3.8
	h-1.1v-1.8h1.1v-1.7l2.3-1.3v3.1H226.4z"/>
<path d="M232.4,431.4l2.3,0.4c-0.3,0.8-0.8,1.5-1.4,1.9c-0.6,0.4-1.4,0.7-2.4,0.7c-1.5,0-2.6-0.5-3.4-1.5c-0.6-0.8-0.9-1.8-0.9-3
	c0-1.4,0.4-2.6,1.1-3.4c0.8-0.8,1.7-1.2,2.9-1.2c1.3,0,2.3,0.4,3.1,1.3c0.7,0.9,1.1,2.2,1.1,3.9H229c0,0.7,0.2,1.2,0.6,1.6
	c0.4,0.4,0.8,0.6,1.3,0.6c0.4,0,0.7-0.1,0.9-0.3C232.1,432.2,232.3,431.9,232.4,431.4 M232.5,429.1c0-0.7-0.2-1.2-0.5-1.5
	c-0.3-0.3-0.7-0.5-1.2-0.5c-0.5,0-0.9,0.2-1.2,0.5c-0.3,0.4-0.5,0.9-0.5,1.5H232.5z"/>
<path d="M238.2,434.2h-2.3v-8.7h2.1v1.2c0.4-0.6,0.7-1,1-1.2c0.3-0.2,0.6-0.3,1-0.3c0.5,0,1,0.1,1.5,0.4l-0.7,2
	c-0.4-0.2-0.7-0.4-1.1-0.4c-0.3,0-0.6,0.1-0.8,0.3c-0.2,0.2-0.4,0.5-0.5,1c-0.1,0.5-0.2,1.4-0.2,2.9V434.2z"/>
<polygon points="245.9,434.2 245.9,422.2 248.2,422.2 253.1,430.2 253.1,422.2 255.4,422.2 255.4,434.2 253,434.2 248.1,426.4 
	248.1,434.2 "/>
<path d="M257.3,422.2h2.3v2.1h-2.3V422.2z M257.3,425.5h2.3v8.7h-2.3V425.5z"/>
<path d="M263.6,434.2l-3.5-8.7h2.4l1.6,4.4l0.5,1.5c0.1-0.4,0.2-0.6,0.2-0.7c0.1-0.2,0.2-0.5,0.2-0.7l1.7-4.4h2.4l-3.5,8.7H263.6z"
	/>
<path d="M274.9,431.4l2.3,0.4c-0.3,0.8-0.8,1.5-1.4,1.9c-0.6,0.4-1.4,0.7-2.4,0.7c-1.5,0-2.6-0.5-3.4-1.5c-0.6-0.8-0.9-1.8-0.9-3
	c0-1.4,0.4-2.6,1.1-3.4c0.8-0.8,1.7-1.2,2.9-1.2c1.3,0,2.3,0.4,3.1,1.3c0.7,0.9,1.1,2.2,1.1,3.9h-5.8c0,0.7,0.2,1.2,0.6,1.6
	c0.4,0.4,0.8,0.6,1.3,0.6c0.4,0,0.7-0.1,0.9-0.3C274.6,432.2,274.8,431.9,274.9,431.4 M275,429.1c0-0.7-0.2-1.2-0.5-1.5
	c-0.3-0.3-0.7-0.5-1.2-0.5c-0.5,0-0.9,0.2-1.2,0.5c-0.3,0.4-0.5,0.9-0.5,1.5H275z"/>
<path d="M286.5,434.2h-2.1v-1.3c-0.4,0.5-0.8,0.9-1.3,1.1s-1,0.4-1.5,0.4c-1,0-1.9-0.4-2.6-1.2c-0.7-0.8-1.1-1.9-1.1-3.4
	c0-1.5,0.3-2.6,1-3.4c0.7-0.8,1.6-1.1,2.6-1.1c1,0,1.8,0.4,2.5,1.2v-4.3h2.3V434.2z M280.4,429.7c0,0.9,0.1,1.6,0.4,2
	c0.4,0.6,0.9,0.9,1.6,0.9c0.5,0,1-0.2,1.3-0.7c0.4-0.4,0.6-1.1,0.6-2c0-1-0.2-1.7-0.5-2.2c-0.4-0.4-0.8-0.7-1.4-0.7
	c-0.5,0-1,0.2-1.4,0.6C280.5,428.2,280.4,428.8,280.4,429.7"/>
<path d="M288.1,422.2h2.3v2.1h-2.3V422.2z M288.1,425.5h2.3v8.7h-2.3V425.5z"/>
<path d="M296.1,425.5v1.8h-1.6v3.5c0,0.7,0,1.1,0,1.2c0,0.1,0.1,0.2,0.2,0.3c0.1,0.1,0.2,0.1,0.4,0.1c0.2,0,0.5-0.1,0.9-0.2l0.2,1.8
	c-0.5,0.2-1.1,0.3-1.8,0.3c-0.4,0-0.8-0.1-1.1-0.2c-0.3-0.1-0.6-0.3-0.7-0.5c-0.2-0.2-0.3-0.5-0.3-0.9c0-0.3-0.1-0.8-0.1-1.6v-3.8
	h-1.1v-1.8h1.1v-1.7l2.3-1.3v3.1H296.1z"/>
<path d="M298.7,428.2l-2.1-0.4c0.2-0.8,0.6-1.5,1.2-1.9c0.6-0.4,1.4-0.6,2.6-0.6c1,0,1.8,0.1,2.3,0.4c0.5,0.2,0.9,0.6,1.1,0.9
	c0.2,0.4,0.3,1.1,0.3,2.1l0,2.7c0,0.8,0,1.3,0.1,1.7c0.1,0.4,0.2,0.8,0.4,1.2h-2.3c-0.1-0.2-0.1-0.4-0.2-0.7c0-0.1-0.1-0.2-0.1-0.3
	c-0.4,0.4-0.8,0.7-1.3,0.9c-0.4,0.2-0.9,0.3-1.4,0.3c-0.9,0-1.6-0.2-2.1-0.7c-0.5-0.5-0.8-1.1-0.8-1.8c0-0.5,0.1-0.9,0.4-1.3
	c0.2-0.4,0.6-0.7,1-0.9c0.4-0.2,1-0.4,1.8-0.5c1.1-0.2,1.8-0.4,2.2-0.6v-0.2c0-0.4-0.1-0.8-0.3-0.9c-0.2-0.2-0.6-0.3-1.2-0.3
	c-0.4,0-0.7,0.1-1,0.2C299,427.5,298.8,427.8,298.7,428.2 M301.8,430c-0.3,0.1-0.8,0.2-1.4,0.4c-0.6,0.1-1.1,0.3-1.3,0.4
	c-0.3,0.2-0.4,0.5-0.4,0.8c0,0.3,0.1,0.6,0.4,0.8c0.2,0.2,0.5,0.4,0.9,0.4c0.4,0,0.8-0.1,1.2-0.4c0.3-0.2,0.5-0.5,0.5-0.8
	c0.1-0.2,0.1-0.6,0.1-1.1V430z"/>
<polygon points="309.6,434.2 309.6,422.2 318.5,422.2 318.5,424.3 312,424.3 312,426.9 318.1,426.9 318.1,428.9 312,428.9 
	312,432.2 318.7,432.2 318.7,434.2 "/>
<path d="M328.1,434.2h-2.1v-1.3c-0.4,0.5-0.8,0.9-1.3,1.1s-1,0.4-1.5,0.4c-1,0-1.9-0.4-2.6-1.2c-0.7-0.8-1.1-1.9-1.1-3.4
	c0-1.5,0.3-2.6,1-3.4c0.7-0.8,1.6-1.1,2.6-1.1c1,0,1.8,0.4,2.5,1.2v-4.3h2.3V434.2z M321.9,429.7c0,0.9,0.1,1.6,0.4,2
	c0.4,0.6,0.9,0.9,1.6,0.9c0.5,0,1-0.2,1.3-0.7s0.6-1.1,0.6-2c0-1-0.2-1.7-0.5-2.2c-0.4-0.4-0.8-0.7-1.4-0.7c-0.5,0-1,0.2-1.4,0.6
	C322.1,428.2,321.9,428.8,321.9,429.7"/>
<path d="M335.4,434.2v-1.3c-0.3,0.5-0.7,0.8-1.2,1.1c-0.5,0.3-1.1,0.4-1.6,0.4c-0.6,0-1.1-0.1-1.6-0.4c-0.5-0.3-0.8-0.6-1-1.1
	c-0.2-0.5-0.3-1.1-0.3-1.9v-5.5h2.3v4c0,1.2,0,2,0.1,2.2c0.1,0.3,0.2,0.5,0.5,0.7c0.2,0.2,0.5,0.2,0.9,0.2c0.4,0,0.7-0.1,1.1-0.3
	c0.3-0.2,0.5-0.5,0.6-0.8c0.1-0.3,0.2-1.1,0.2-2.3v-3.7h2.3v8.7H335.4z"/>
<path d="M346.8,428.1l-2.3,0.4c-0.1-0.5-0.2-0.8-0.5-1c-0.3-0.2-0.6-0.3-1.1-0.3c-0.6,0-1,0.2-1.4,0.6c-0.3,0.4-0.5,1.1-0.5,2
	c0,1,0.2,1.8,0.5,2.2c0.3,0.4,0.8,0.6,1.4,0.6c0.4,0,0.8-0.1,1.1-0.4c0.3-0.2,0.5-0.7,0.6-1.3l2.3,0.4c-0.2,1-0.7,1.8-1.4,2.3
	c-0.7,0.5-1.6,0.8-2.7,0.8c-1.3,0-2.3-0.4-3-1.2c-0.8-0.8-1.1-1.9-1.1-3.3c0-1.4,0.4-2.5,1.1-3.3c0.8-0.8,1.8-1.2,3.1-1.2
	c1.1,0,1.9,0.2,2.5,0.7C346.1,426.5,346.5,427.2,346.8,428.1"/>
<path d="M349.6,428.2l-2.1-0.4c0.2-0.8,0.6-1.5,1.2-1.9c0.6-0.4,1.4-0.6,2.6-0.6c1,0,1.8,0.1,2.3,0.4c0.5,0.2,0.9,0.6,1.1,0.9
	c0.2,0.4,0.3,1.1,0.3,2.1l0,2.7c0,0.8,0,1.3,0.1,1.7c0.1,0.4,0.2,0.8,0.4,1.2h-2.3c-0.1-0.2-0.1-0.4-0.2-0.7c0-0.1-0.1-0.2-0.1-0.3
	c-0.4,0.4-0.8,0.7-1.3,0.9c-0.4,0.2-0.9,0.3-1.4,0.3c-0.9,0-1.6-0.2-2.1-0.7c-0.5-0.5-0.8-1.1-0.8-1.8c0-0.5,0.1-0.9,0.4-1.3
	c0.2-0.4,0.6-0.7,1-0.9c0.4-0.2,1-0.4,1.8-0.5c1.1-0.2,1.8-0.4,2.2-0.6v-0.2c0-0.4-0.1-0.8-0.3-0.9c-0.2-0.2-0.6-0.3-1.2-0.3
	c-0.4,0-0.7,0.1-1,0.2C349.9,427.5,349.7,427.8,349.6,428.2 M352.7,430c-0.3,0.1-0.8,0.2-1.4,0.4c-0.6,0.1-1.1,0.3-1.3,0.4
	c-0.3,0.2-0.4,0.5-0.4,0.8c0,0.3,0.1,0.6,0.4,0.8c0.2,0.2,0.5,0.4,0.9,0.4c0.4,0,0.8-0.1,1.2-0.4c0.3-0.2,0.5-0.5,0.5-0.8
	c0.1-0.2,0.1-0.6,0.1-1.1V430z"/>
<path d="M360.5,425.5v1.8h-1.6v3.5c0,0.7,0,1.1,0,1.2c0,0.1,0.1,0.2,0.2,0.3c0.1,0.1,0.2,0.1,0.4,0.1c0.2,0,0.5-0.1,0.9-0.2l0.2,1.8
	c-0.5,0.2-1.1,0.3-1.8,0.3c-0.4,0-0.8-0.1-1.1-0.2c-0.3-0.1-0.6-0.3-0.7-0.5c-0.2-0.2-0.3-0.5-0.3-0.9c0-0.3-0.1-0.8-0.1-1.6v-3.8
	h-1.1v-1.8h1.1v-1.7l2.3-1.3v3.1H360.5z"/>
<path d="M361.4,422.2h2.3v2.1h-2.3V422.2z M361.4,425.5h2.3v8.7h-2.3V425.5z"/>
<path d="M364.9,429.7c0-0.8,0.2-1.5,0.6-2.2c0.4-0.7,0.9-1.3,1.6-1.6c0.7-0.4,1.5-0.6,2.3-0.6c1.3,0,2.4,0.4,3.2,1.3
	c0.8,0.9,1.3,1.9,1.3,3.2c0,1.3-0.4,2.4-1.3,3.3c-0.8,0.9-1.9,1.3-3.2,1.3c-0.8,0-1.6-0.2-2.3-0.5c-0.7-0.4-1.3-0.9-1.6-1.6
	C365.1,431.6,364.9,430.7,364.9,429.7 M367.2,429.9c0,0.9,0.2,1.5,0.6,2c0.4,0.5,0.9,0.7,1.5,0.7c0.6,0,1.1-0.2,1.5-0.7
	c0.4-0.5,0.6-1.1,0.6-2c0-0.9-0.2-1.5-0.6-2c-0.4-0.5-0.9-0.7-1.5-0.7c-0.6,0-1.1,0.2-1.5,0.7C367.4,428.3,367.2,429,367.2,429.9"/>
<path d="M382.9,434.2h-2.3v-4.4c0-0.9,0-1.5-0.1-1.8c-0.1-0.3-0.3-0.5-0.5-0.6c-0.2-0.2-0.5-0.2-0.8-0.2c-0.4,0-0.8,0.1-1.1,0.3
	c-0.3,0.2-0.5,0.5-0.7,0.9c-0.1,0.4-0.2,1-0.2,2v3.9H375v-8.7h2.1v1.3c0.8-1,1.7-1.5,2.9-1.5c0.5,0,1,0.1,1.4,0.3
	c0.4,0.2,0.7,0.4,1,0.7c0.2,0.3,0.4,0.6,0.4,1c0.1,0.4,0.1,0.9,0.1,1.5V434.2z"/>
<path d="M386.3,428.2l-2.1-0.4c0.2-0.8,0.6-1.5,1.2-1.9c0.6-0.4,1.4-0.6,2.6-0.6c1,0,1.8,0.1,2.3,0.4c0.5,0.2,0.9,0.6,1.1,0.9
	c0.2,0.4,0.3,1.1,0.3,2.1l0,2.7c0,0.8,0,1.3,0.1,1.7c0.1,0.4,0.2,0.8,0.4,1.2h-2.3c-0.1-0.2-0.1-0.4-0.2-0.7c0-0.1-0.1-0.2-0.1-0.3
	c-0.4,0.4-0.8,0.7-1.3,0.9c-0.4,0.2-0.9,0.3-1.4,0.3c-0.9,0-1.6-0.2-2.1-0.7c-0.5-0.5-0.8-1.1-0.8-1.8c0-0.5,0.1-0.9,0.4-1.3
	c0.2-0.4,0.6-0.7,1-0.9c0.4-0.2,1-0.4,1.8-0.5c1.1-0.2,1.8-0.4,2.2-0.6v-0.2c0-0.4-0.1-0.8-0.3-0.9c-0.2-0.2-0.6-0.3-1.2-0.3
	c-0.4,0-0.7,0.1-1,0.2C386.6,427.5,386.4,427.8,386.3,428.2 M389.3,430c-0.3,0.1-0.8,0.2-1.4,0.4c-0.6,0.1-1.1,0.3-1.3,0.4
	c-0.3,0.2-0.4,0.5-0.4,0.8c0,0.3,0.1,0.6,0.4,0.8c0.2,0.2,0.5,0.4,0.9,0.4c0.4,0,0.8-0.1,1.2-0.4c0.3-0.2,0.5-0.5,0.5-0.8
	c0.1-0.2,0.1-0.6,0.1-1.1V430z"/>
<rect x="393.2" y="422.2" width="2.3" height="12"/>
<path d="M400.5,430.3l2.4-0.2c0.1,0.8,0.4,1.4,0.9,1.7c0.4,0.4,1,0.6,1.8,0.6c0.8,0,1.4-0.2,1.8-0.5c0.4-0.3,0.6-0.7,0.6-1.2
	c0-0.3-0.1-0.5-0.2-0.7c-0.2-0.2-0.5-0.4-0.9-0.5c-0.3-0.1-0.9-0.3-1.9-0.5c-1.3-0.3-2.2-0.7-2.7-1.2c-0.7-0.7-1.1-1.5-1.1-2.4
	c0-0.6,0.2-1.2,0.5-1.7c0.3-0.5,0.8-0.9,1.5-1.2c0.7-0.3,1.4-0.4,2.4-0.4c1.5,0,2.6,0.3,3.4,1c0.8,0.7,1.2,1.5,1.2,2.6l-2.4,0.1
	c-0.1-0.6-0.3-1.1-0.7-1.3c-0.3-0.3-0.9-0.4-1.5-0.4c-0.7,0-1.3,0.1-1.7,0.4c-0.3,0.2-0.4,0.4-0.4,0.7c0,0.3,0.1,0.5,0.4,0.7
	c0.3,0.3,1,0.5,2.2,0.8c1.2,0.3,2,0.6,2.6,0.9c0.6,0.3,1,0.7,1.3,1.2c0.3,0.5,0.5,1.2,0.5,1.9c0,0.7-0.2,1.3-0.6,1.9
	c-0.4,0.6-0.9,1-1.6,1.3c-0.7,0.3-1.6,0.4-2.6,0.4c-1.5,0-2.7-0.4-3.5-1.1C401.2,432.7,400.7,431.7,400.5,430.3"/>
<path d="M411.1,429.7c0-0.8,0.2-1.5,0.6-2.2c0.4-0.7,0.9-1.3,1.6-1.6c0.7-0.4,1.5-0.6,2.3-0.6c1.3,0,2.4,0.4,3.2,1.3
	c0.8,0.9,1.3,1.9,1.3,3.2c0,1.3-0.4,2.4-1.3,3.3s-1.9,1.3-3.2,1.3c-0.8,0-1.6-0.2-2.3-0.5c-0.7-0.4-1.3-0.9-1.6-1.6
	C411.3,431.6,411.1,430.7,411.1,429.7 M413.5,429.9c0,0.9,0.2,1.5,0.6,2c0.4,0.5,0.9,0.7,1.5,0.7c0.6,0,1.1-0.2,1.5-0.7
	c0.4-0.5,0.6-1.1,0.6-2c0-0.9-0.2-1.5-0.6-2c-0.4-0.5-0.9-0.7-1.5-0.7c-0.6,0-1.1,0.2-1.5,0.7C413.7,428.3,413.5,429,413.5,429.9"/>
<path d="M428.8,428.1l-2.3,0.4c-0.1-0.5-0.2-0.8-0.5-1c-0.3-0.2-0.6-0.3-1.1-0.3c-0.6,0-1,0.2-1.4,0.6c-0.3,0.4-0.5,1.1-0.5,2
	c0,1,0.2,1.8,0.5,2.2c0.3,0.4,0.8,0.6,1.4,0.6c0.4,0,0.8-0.1,1.1-0.4c0.3-0.2,0.5-0.7,0.6-1.3l2.3,0.4c-0.2,1-0.7,1.8-1.4,2.3
	c-0.7,0.5-1.6,0.8-2.7,0.8c-1.3,0-2.3-0.4-3-1.2c-0.8-0.8-1.1-1.9-1.1-3.3c0-1.4,0.4-2.5,1.1-3.3c0.8-0.8,1.8-1.2,3.1-1.2
	c1.1,0,1.9,0.2,2.5,0.7C428.1,426.5,428.5,427.2,428.8,428.1"/>
<path d="M429.9,422.2h2.3v2.1h-2.3V422.2z M429.9,425.5h2.3v8.7h-2.3V425.5z"/>
<path d="M438.9,431.4l2.3,0.4c-0.3,0.8-0.8,1.5-1.4,1.9c-0.6,0.4-1.4,0.7-2.4,0.7c-1.5,0-2.6-0.5-3.4-1.5c-0.6-0.8-0.9-1.8-0.9-3
	c0-1.4,0.4-2.6,1.1-3.4c0.8-0.8,1.7-1.2,2.9-1.2c1.3,0,2.3,0.4,3.1,1.3c0.7,0.9,1.1,2.2,1.1,3.9h-5.8c0,0.7,0.2,1.2,0.6,1.6
	c0.4,0.4,0.8,0.6,1.3,0.6c0.4,0,0.7-0.1,0.9-0.3C438.6,432.2,438.7,431.9,438.9,431.4 M439,429.1c0-0.7-0.2-1.2-0.5-1.5
	c-0.3-0.3-0.7-0.5-1.2-0.5c-0.5,0-0.9,0.2-1.2,0.5c-0.3,0.4-0.5,0.9-0.5,1.5H439z"/>
<path d="M446.5,425.5v1.8h-1.6v3.5c0,0.7,0,1.1,0,1.2c0,0.1,0.1,0.2,0.2,0.3c0.1,0.1,0.2,0.1,0.4,0.1c0.2,0,0.5-0.1,0.9-0.2l0.2,1.8
	c-0.5,0.2-1.1,0.3-1.8,0.3c-0.4,0-0.8-0.1-1.1-0.2c-0.3-0.1-0.6-0.3-0.7-0.5c-0.2-0.2-0.3-0.5-0.3-0.9c0-0.3-0.1-0.8-0.1-1.6v-3.8
	h-1.1v-1.8h1.1v-1.7l2.3-1.3v3.1H446.5z"/>
<path d="M446.3,425.5h2.4l2.1,6.2l2-6.2h2.4l-3.1,8.4l-0.5,1.5c-0.2,0.5-0.4,0.9-0.6,1.2c-0.2,0.3-0.4,0.5-0.6,0.6
	c-0.2,0.2-0.5,0.3-0.9,0.4c-0.3,0.1-0.7,0.1-1.2,0.1c-0.4,0-0.9,0-1.3-0.1l-0.2-1.8c0.4,0.1,0.7,0.1,1,0.1c0.5,0,0.9-0.2,1.2-0.5
	c0.3-0.3,0.5-0.7,0.6-1.2L446.3,425.5z"/>
<path d="M455.4,437.7c0.5-1,0.8-1.7,1-2.2c0.2-0.5,0.4-1.1,0.5-1.8c0.2-0.7,0.3-1.3,0.4-1.9c0.1-0.6,0.1-1.2,0.1-1.9
	c0-1.3-0.1-2.5-0.4-3.7c-0.3-1.2-0.8-2.6-1.5-4.2h1.6c0.8,1.2,1.5,2.4,1.9,3.7c0.5,1.3,0.7,2.6,0.7,4c0,1.1-0.2,2.4-0.5,3.7
	c-0.4,1.5-1.1,2.9-2,4.3H455.4z"/>
</svg>
